<?xml version="1.0" encoding="utf-8"?>
<!-- Generator: Adobe Illustrator 16.0.0, SVG Export Plug-In . SVG Version: 6.00 Build 0)  -->
<!DOCTYPE svg PUBLIC "-//W3C//DTD SVG 1.1//EN" "http://www.w3.org/Graphics/SVG/1.1/DTD/svg11.dtd">
<svg version="1.1" id="Layer_1" xmlns="http://www.w3.org/2000/svg" xmlns:xlink="http://www.w3.org/1999/xlink" x="0px" y="0px"
	 width="50.833px" height="49.085px" viewBox="0 0 50.833 49.085" enable-background="new 0 0 50.833 49.085" xml:space="preserve">
<g opacity="0.8">
	<path fill="#73A950" d="M25.495,25.262c-3.365,0-6.481,1.078-9.037,2.893c-0.4,0.287-0.659,0.73-0.699,1.225
		c-0.038,0.492,0.136,0.979,0.488,1.326l1.278,1.279c0.567,0.564,1.453,0.648,2.116,0.201c1.674-1.129,3.688-1.789,5.854-1.789
		c2.17,0,4.18,0.66,5.856,1.789c0.663,0.447,1.552,0.363,2.118-0.201l1.277-1.283c0.349-0.344,0.527-0.83,0.485-1.322
		c-0.044-0.49-0.297-0.938-0.698-1.225C31.979,26.34,28.862,25.262,25.495,25.262z"/>
	<path fill="#73A950" d="M25.495,15.993c-6.003,0-11.593,1.75-16.333,4.734c-0.431,0.27-0.714,0.723-0.772,1.229
		c-0.055,0.506,0.121,1.012,0.479,1.369l1.279,1.281c0.546,0.547,1.39,0.645,2.052,0.244c3.877-2.362,8.432-3.72,13.294-3.72
		c4.863,0,9.417,1.357,13.297,3.72c0.66,0.401,1.508,0.299,2.053-0.244l1.279-1.281c0.359-0.357,0.535-0.861,0.477-1.369
		c-0.055-0.507-0.339-0.96-0.77-1.229C37.09,17.743,31.5,15.993,25.495,15.993z"/>
	<path fill="#73A950" d="M3.372,17.829c0.554,0.558,1.422,0.648,2.086,0.222c5.788-3.716,12.666-5.876,20.037-5.876
		c7.375,0,14.25,2.16,20.041,5.876c0.662,0.427,1.532,0.336,2.086-0.222l1.291-1.293c0.357-0.355,0.533-0.854,0.48-1.354
		c-0.052-0.504-0.326-0.953-0.748-1.229c-6.656-4.368-14.608-6.916-23.15-6.916c-8.539,0-16.491,2.548-23.149,6.916
		c-0.42,0.276-0.694,0.726-0.748,1.229c-0.05,0.5,0.124,0.998,0.48,1.354L3.372,17.829z"/>
	<path fill="#73A950" d="M25.709,34.664c-2.104,0-3.813,1.707-3.813,3.816c0,2.102,1.709,3.809,3.813,3.809
		c2.105,0,3.814-1.707,3.814-3.809C29.524,36.371,27.815,34.664,25.709,34.664z"/>
</g>
</svg>
