<?xml version="1.0" encoding="utf-8"?>
<!-- Generator: Adobe Illustrator 16.0.0, SVG Export Plug-In . SVG Version: 6.00 Build 0)  -->
<!DOCTYPE svg PUBLIC "-//W3C//DTD SVG 1.1//EN" "http://www.w3.org/Graphics/SVG/1.1/DTD/svg11.dtd">
<svg version="1.1" id="Layer_1" xmlns="http://www.w3.org/2000/svg" xmlns:xlink="http://www.w3.org/1999/xlink" x="0px" y="0px"
	 width="42.391px" height="51.401px" viewBox="0 0 42.391 51.401" enable-background="new 0 0 42.391 51.401" xml:space="preserve">
<g opacity="0.8">
	<path fill="#73A950" d="M40.44,29.689c0.023-0.354,0.041-0.706,0.041-1.052c0-7.427-5.207-13.469-11.607-13.469h-7.561V3.073
		c0-0.417,0.352-0.769,0.768-0.769H40.19c0.637,0,1.158-0.507,1.158-1.146C41.348,0.519,40.827,0,40.19,0H22.081
		c-1.695,0-3.073,1.379-3.073,3.073v12.095h-5.489c-6.4,0-11.607,6.042-11.607,13.469c0,0.345,0.016,0.696,0.039,1.052
		C0.796,30.33,0,31.656,0,33.189c0,2.156,1.574,3.912,3.511,3.912h35.37c1.937,0,3.51-1.756,3.51-3.912
		C42.391,31.656,41.595,30.329,40.44,29.689z"/>
	<path fill="#73A950" d="M22.149,41.384c0.382-0.521,0.266-1.256-0.256-1.64c-0.523-0.382-1.259-0.271-1.643,0.253
		c-0.906,1.234-2.06,4.195,0.075,6.553c1.402,1.545-0.044,3.775-0.103,3.865c-0.363,0.537-0.222,1.269,0.318,1.631
		c0.202,0.138,0.429,0.202,0.658,0.202c0.376,0,0.748-0.182,0.972-0.52c0.891-1.317,2.014-4.425-0.102-6.761
		C20.701,43.458,22.081,41.482,22.149,41.384z"/>
	<path fill="#73A950" d="M29.951,41.384c0.38-0.524,0.265-1.256-0.257-1.64c-0.522-0.383-1.26-0.271-1.646,0.252
		c-0.907,1.235-2.058,4.195,0.077,6.553c1.402,1.546-0.045,3.776-0.104,3.866c-0.359,0.537-0.22,1.268,0.319,1.631
		c0.203,0.138,0.432,0.202,0.656,0.202c0.379,0,0.748-0.182,0.977-0.518c0.888-1.319,2.012-4.429-0.105-6.763
		C28.5,43.458,29.879,41.48,29.951,41.384z"/>
	<path fill="#73A950" d="M14.348,41.384c0.38-0.524,0.267-1.256-0.255-1.64c-0.522-0.383-1.259-0.271-1.644,0.252
		c-0.907,1.235-2.058,4.195,0.077,6.553c1.398,1.546-0.045,3.776-0.105,3.866c-0.363,0.537-0.221,1.268,0.32,1.631
		c0.2,0.138,0.427,0.202,0.655,0.202c0.376,0,0.748-0.182,0.975-0.518c0.891-1.319,2.011-4.429-0.102-6.763
		C12.898,43.458,14.278,41.48,14.348,41.384z"/>
</g>
</svg>
