<?xml version="1.0" encoding="utf-8"?>
<!-- Generator: Adobe Illustrator 16.0.0, SVG Export Plug-In . SVG Version: 6.00 Build 0)  -->
<!DOCTYPE svg PUBLIC "-//W3C//DTD SVG 1.1//EN" "http://www.w3.org/Graphics/SVG/1.1/DTD/svg11.dtd">
<svg version="1.1" id="Layer_1" xmlns="http://www.w3.org/2000/svg" xmlns:xlink="http://www.w3.org/1999/xlink" x="0px" y="0px"
	 width="73.276px" height="136.071px" viewBox="0 0 73.276 136.071" enable-background="new 0 0 73.276 136.071"
	 xml:space="preserve">
<g opacity="0.8">
	<path opacity="0.7" fill="#717271" d="M67.313,136.071c2.009,0,3.996-0.104,5.964-0.276V1.727
		c-1.968-0.171-3.955-0.277-5.964-0.277C30.138,1.45,0,31.587,0,68.761C0,105.936,30.138,136.071,67.313,136.071z"/>
</g>
</svg>
