<?xml version="1.0" encoding="utf-8"?>
<!-- Generator: Adobe Illustrator 16.0.0, SVG Export Plug-In . SVG Version: 6.00 Build 0)  -->
<!DOCTYPE svg PUBLIC "-//W3C//DTD SVG 1.1//EN" "http://www.w3.org/Graphics/SVG/1.1/DTD/svg11.dtd">
<svg version="1.1" id="Layer_1" xmlns="http://www.w3.org/2000/svg" xmlns:xlink="http://www.w3.org/1999/xlink" x="0px" y="0px"
	 width="40.518px" height="24.207px" viewBox="0 0 40.518 24.207" enable-background="new 0 0 40.518 24.207" xml:space="preserve">
<g>
	<path fill="#FFFFFF" d="M0,2.209h0.59c0.393,0,0.769,0.191,1.126,0.571l17.469,19.354c0.18,0.222,0.369,0.447,0.564,0.678
		c0.195,0.232,0.367,0.467,0.51,0.707c0.107-0.24,0.26-0.471,0.455-0.691s0.4-0.451,0.615-0.693L38.802,2.78
		c0.32-0.38,0.695-0.571,1.125-0.571h0.59L20.581,24.18h-0.646L0,2.209z"/>
</g>
</svg>
