<?xml version="1.0" encoding="utf-8"?>
<!-- Generator: Adobe Illustrator 16.0.0, SVG Export Plug-In . SVG Version: 6.00 Build 0)  -->
<!DOCTYPE svg PUBLIC "-//W3C//DTD SVG 1.1//EN" "http://www.w3.org/Graphics/SVG/1.1/DTD/svg11.dtd">
<svg version="1.1" id="Layer_1" xmlns="http://www.w3.org/2000/svg" xmlns:xlink="http://www.w3.org/1999/xlink" x="0px" y="0px"
	 width="22.346px" height="23.676px" viewBox="0 0 22.346 23.676" enable-background="new 0 0 22.346 23.676" xml:space="preserve">
<path fill="#5E8940" d="M14.836,9.775l-0.021-0.018l-0.04-0.008l-0.03,0.002c-0.013,0-0.023,0-0.036,0h-0.786
	c-0.457,0-0.914,0-1.37,0h-0.004c0,0,0-0.003,0-0.006c0-0.486,0-0.973,0.002-1.457c0-0.006-0.002-0.011-0.002-0.014l0.011-0.027
	l0.005-0.029c0-0.014,0-0.028-0.001-0.041c-0.002-0.019-0.004-0.035,0.001-0.04l0.008-0.013l0.003-0.016
	c0.001-0.014,0.003-0.023,0.003-0.034c0.007-0.03,0.009-0.059,0.009-0.093c-0.001-0.074,0.033-0.146,0.068-0.219l0.007-0.014
	c0.031-0.066,0.076-0.121,0.125-0.15c0.054-0.033,0.127-0.07,0.21-0.093c0.095-0.024,0.198-0.048,0.306-0.048h0.051l0.012-0.014
	c0.008,0,0.013,0,0.013,0c0.346,0,0.686,0,1.027,0h0.341l0.018-0.002c0.06-0.014,0.1-0.055,0.114-0.118l0.003-2.685l-0.082-0.075
	h-2.285c-0.021,0-0.039,0.003-0.059,0.007c-0.012,0.003-0.019,0.005-0.033,0.004l-0.041-0.001c-0.098,0-0.198,0.011-0.291,0.022
	c-0.035,0.003-0.066,0.009-0.099,0.011c-0.125,0.015-0.249,0.04-0.366,0.063l-0.059,0.013c-0.096,0.018-0.188,0.047-0.278,0.075
	L11.256,4.77c-0.147,0.044-0.291,0.109-0.424,0.173c-0.127,0.059-0.243,0.136-0.348,0.209c-0.144,0.101-0.274,0.222-0.403,0.367
	C9.957,5.66,9.844,5.824,9.728,6.035C9.676,6.128,9.627,6.236,9.584,6.363C9.578,6.378,9.571,6.394,9.566,6.412
	C9.553,6.445,9.538,6.481,9.527,6.519L9.513,6.58c-0.02,0.07-0.04,0.146-0.063,0.219c-0.009,0.025-0.016,0.053-0.02,0.084
	c-0.003,0.045-0.012,0.09-0.024,0.137C9.39,7.09,9.373,7.166,9.378,7.248c0.001,0.014-0.005,0.041-0.015,0.062L9.356,7.32
	L9.354,7.328C9.341,7.382,9.341,7.435,9.341,7.486c0,0.033,0,0.061-0.005,0.089v0.007c0,0.015,0,0.028,0.001,0.042
	c0.001,0.011,0.003,0.026,0,0.03L9.33,7.666L9.328,7.679C9.315,7.771,9.315,7.857,9.316,7.944c0,0.021,0,0.043,0,0.065l-0.01,0.006
	L9.303,8.101c0.001,0.551,0.001,1.104,0.001,1.655H8.646H7.898L7.87,9.753L7.805,9.768v0.001L7.576,9.766l0.186,0.12l0.002,2.728
	l0.059,0.013l0.007,0.002l0.009,0.014h0.584c0.289,0,0.579,0,0.868,0c0.007,0,0.012,0,0.015-0.002
	c-0.001,0.009-0.001,0.017-0.001,0.026c0,2.271,0,4.544,0,6.815v0.894c0,0.02,0.001,0.04,0.001,0.06l0.001,0.055l0.02,0.021v-0.006
	l0,0c0.011,0.014,0.034,0.053,0.088,0.053l0.026-0.003c0.016-0.001,0.032-0.001,0.047-0.001h2.895c0.017,0,0.035,0,0.054-0.002
	h0.075l0.041-0.082l0.001-0.04c0-0.021,0-0.042,0-0.066v-0.948c0.002-2.252,0.002-4.504,0.002-6.756
	c0-0.009-0.002-0.016-0.003-0.024h1.094h0.84c0.004,0,0.008,0,0.012,0.001l0.03,0.002l0.017-0.008
	c0.056-0.021,0.067-0.071,0.068-0.093c0-0.003,0.002-0.006,0.002-0.009c0.013-0.043,0.017-0.086,0.019-0.123
	c0.004-0.031,0.005-0.062,0.014-0.088l0.017-0.195l-0.001-0.008c-0.004-0.063,0.009-0.125,0.018-0.193
	c0.005-0.025,0.01-0.052,0.014-0.078c0.013-0.041,0.013-0.078,0.013-0.111c0.002-0.021,0.002-0.039,0.005-0.057v-0.01V11.66
	c0-0.068,0.01-0.134,0.02-0.205c0.006-0.029,0.01-0.059,0.014-0.092l0.013-0.174v-0.006c-0.005-0.055,0.006-0.107,0.015-0.167
	c0.007-0.038,0.014-0.075,0.016-0.114l0.017-0.147l-0.001-0.011c-0.008-0.047,0.001-0.094,0.009-0.148
	c0.007-0.041,0.014-0.088,0.014-0.133l0.008-0.014c0.013-0.041,0.014-0.08,0.014-0.115c0-0.018,0.001-0.036,0.004-0.053l0.001-0.007
	v-0.007c-0.005-0.082,0.01-0.164,0.025-0.254c0.004-0.027,0.01-0.055,0.013-0.082c0.002-0.005,0.002-0.009,0.005-0.014
	C14.896,9.897,14.911,9.822,14.836,9.775z"/>
</svg>
