<?xml version="1.0" encoding="utf-8"?>
<!-- Generator: Adobe Illustrator 16.0.0, SVG Export Plug-In . SVG Version: 6.00 Build 0)  -->
<!DOCTYPE svg PUBLIC "-//W3C//DTD SVG 1.1//EN" "http://www.w3.org/Graphics/SVG/1.1/DTD/svg11.dtd">
<svg version="1.1" id="Layer_1" xmlns="http://www.w3.org/2000/svg" xmlns:xlink="http://www.w3.org/1999/xlink" x="0px" y="0px"
	 width="22.346px" height="23.676px" viewBox="0 0 22.346 23.676" enable-background="new 0 0 22.346 23.676" xml:space="preserve">
<g>
	<path fill="#5E8940" d="M21.339,6.229c-0.725,0.321-1.499,0.537-2.32,0.635c0.836-0.499,1.477-1.291,1.776-2.231
		c-0.779,0.462-1.643,0.798-2.563,0.978c-0.735-0.785-1.787-1.275-2.946-1.275c-2.229,0-4.037,1.809-4.037,4.039
		c0,0.315,0.037,0.623,0.104,0.92c-3.354-0.17-6.329-1.776-8.32-4.219c-0.347,0.598-0.547,1.29-0.547,2.03
		c0,1.399,0.713,2.638,1.797,3.36c-0.661-0.021-1.285-0.203-1.829-0.504c0,0.014,0,0.033,0,0.051c0,1.954,1.392,3.586,3.239,3.958
		c-0.34,0.091-0.695,0.142-1.065,0.142c-0.259,0-0.514-0.025-0.759-0.072c0.515,1.604,2.004,2.771,3.771,2.804
		c-1.38,1.082-3.122,1.728-5.012,1.728c-0.327,0-0.647-0.018-0.965-0.057c1.787,1.147,3.908,1.814,6.188,1.814
		c7.426,0,11.487-6.15,11.487-11.486c0-0.175-0.005-0.349-0.013-0.522C20.112,7.749,20.799,7.04,21.339,6.229L21.339,6.229z"/>
</g>
</svg>
