<?xml version="1.0" encoding="utf-8"?>
<!-- Generator: Adobe Illustrator 16.0.0, SVG Export Plug-In . SVG Version: 6.00 Build 0)  -->
<!DOCTYPE svg PUBLIC "-//W3C//DTD SVG 1.1//EN" "http://www.w3.org/Graphics/SVG/1.1/DTD/svg11.dtd">
<svg version="1.1" id="Layer_1" xmlns="http://www.w3.org/2000/svg" xmlns:xlink="http://www.w3.org/1999/xlink" x="0px" y="0px"
	 width="35px" height="34.786px" viewBox="0 0 35 34.786" enable-background="new 0 0 35 34.786" xml:space="preserve">
<path fill="#FFFFFF" d="M16.874,0.095c-9.666,0-17.5,7.835-17.5,17.5s7.834,17.5,17.5,17.5c9.664,0,17.5-7.835,17.5-17.5
	S26.538,0.095,16.874,0.095z M12.127,27.516V7.673l14.854,9.922L12.127,27.516z"/>
</svg>
