<?xml version="1.0" encoding="utf-8"?>
<!-- Generator: Adobe Illustrator 16.0.0, SVG Export Plug-In . SVG Version: 6.00 Build 0)  -->
<!DOCTYPE svg PUBLIC "-//W3C//DTD SVG 1.1//EN" "http://www.w3.org/Graphics/SVG/1.1/DTD/svg11.dtd">
<svg version="1.1" id="Layer_1" xmlns="http://www.w3.org/2000/svg" xmlns:xlink="http://www.w3.org/1999/xlink" x="0px" y="0px"
	 width="21.769px" height="37.171px" viewBox="0 0 21.769 37.171" enable-background="new 0 0 21.769 37.171" xml:space="preserve">
<g>
	<path fill="#FFFFFF" d="M0,37.171V36.63c0-0.36,0.175-0.705,0.523-1.032L18.28,19.568c0.203-0.163,0.408-0.336,0.619-0.515
		c0.213-0.181,0.43-0.335,0.65-0.469c-0.221-0.097-0.434-0.236-0.635-0.416c-0.202-0.181-0.414-0.37-0.635-0.567L0.523,1.574
		C0.175,1.28,0,0.936,0,0.543V0l20.156,18.29v0.591L0,37.171z"/>
</g>
</svg>
