<?xml version="1.0" encoding="utf-8"?>
<!-- Generator: Adobe Illustrator 16.0.0, SVG Export Plug-In . SVG Version: 6.00 Build 0)  -->
<!DOCTYPE svg PUBLIC "-//W3C//DTD SVG 1.1//EN" "http://www.w3.org/Graphics/SVG/1.1/DTD/svg11.dtd">
<svg version="1.1" id="Layer_1" xmlns="http://www.w3.org/2000/svg" xmlns:xlink="http://www.w3.org/1999/xlink" x="0px" y="0px"
	 width="22.685px" height="42.244px" viewBox="0 0 22.685 42.244" enable-background="new 0 0 22.685 42.244" xml:space="preserve">
<path fill="#FFFFFF" d="M22.685,42.244v-1.711c0-0.566-0.256-1.082-0.729-1.481L2.853,21.809l-0.682-0.608
	c-0.039-0.034-0.078-0.067-0.117-0.1c0.043-0.033,0.084-0.067,0.125-0.102c0.221-0.189,0.439-0.372,0.676-0.563l19.109-17.25
	c0.479-0.45,0.721-0.946,0.721-1.476V0L0,20.584v1.079L22.685,42.244z"/>
</svg>
