<?xml version="1.0" encoding="utf-8"?>
<!-- Generator: Adobe Illustrator 16.0.0, SVG Export Plug-In . SVG Version: 6.00 Build 0)  -->
<!DOCTYPE svg PUBLIC "-//W3C//DTD SVG 1.1//EN" "http://www.w3.org/Graphics/SVG/1.1/DTD/svg11.dtd">
<svg version="1.1" id="Layer_1" xmlns="http://www.w3.org/2000/svg" xmlns:xlink="http://www.w3.org/1999/xlink" x="0px" y="0px"
	 width="102.068px" height="55.557px" viewBox="0 0 102.068 55.557" enable-background="new 0 0 102.068 55.557"
	 xml:space="preserve">
<g>
	<path fill="#FFFFFF" d="M0,51.035c0,1.522,0.079,3.029,0.21,4.521h101.647c0.131-1.492,0.211-2.999,0.211-4.521
		C102.068,22.85,79.218,0,51.033,0C22.849,0,0,22.85,0,51.035z"/>
</g>
</svg>
