<?xml version="1.0" encoding="utf-8"?>
<!-- Generator: Adobe Illustrator 16.0.0, SVG Export Plug-In . SVG Version: 6.00 Build 0)  -->
<!DOCTYPE svg PUBLIC "-//W3C//DTD SVG 1.1//EN" "http://www.w3.org/Graphics/SVG/1.1/DTD/svg11.dtd">
<svg version="1.1" id="Layer_1" xmlns="http://www.w3.org/2000/svg" xmlns:xlink="http://www.w3.org/1999/xlink" x="0px" y="0px"
	 width="7.32px" height="15.994px" viewBox="0 0 7.32 15.994" enable-background="new 0 0 7.32 15.994" xml:space="preserve">
<path fill="#FFFFFF" d="M7.259,5.211L7.24,5.192L7.199,5.185L7.169,5.188c-0.014,0-0.023,0-0.037,0H6.347c-0.457,0-0.914,0-1.371,0
	H4.972c0-0.001,0-0.003,0-0.006c0-0.487,0-0.973,0.002-1.458c0-0.005-0.002-0.01-0.002-0.014l0.012-0.027l0.004-0.029
	c0-0.014,0-0.028,0-0.042c-0.002-0.018-0.004-0.034,0-0.04L4.996,3.56L5,3.544C5,3.531,5.001,3.521,5.001,3.51
	c0.008-0.03,0.01-0.059,0.01-0.093C5.009,3.343,5.044,3.271,5.08,3.199l0.006-0.014c0.031-0.067,0.076-0.121,0.125-0.15
	c0.055-0.034,0.127-0.071,0.211-0.093c0.094-0.025,0.197-0.048,0.305-0.048l0.051,0.001l0.012-0.014c0.008,0,0.014,0,0.014,0
	c0.346,0,0.686,0,1.027,0h0.34l0.018-0.002c0.061-0.014,0.1-0.056,0.115-0.119l0.002-2.684L7.222,0H4.937
	C4.916,0,4.898,0.004,4.878,0.008C4.867,0.01,4.861,0.012,4.845,0.011l-0.041,0c-0.098,0-0.197,0.011-0.291,0.023
	c-0.035,0.002-0.066,0.008-0.098,0.01c-0.125,0.014-0.25,0.04-0.367,0.064L3.99,0.12C3.895,0.137,3.803,0.167,3.712,0.194
	L3.68,0.206C3.532,0.25,3.389,0.315,3.256,0.378C3.129,0.437,3.013,0.514,2.908,0.587C2.765,0.688,2.634,0.809,2.505,0.954
	C2.381,1.095,2.268,1.26,2.151,1.47C2.1,1.563,2.051,1.672,2.008,1.799C2.002,1.814,1.995,1.83,1.99,1.847
	C1.977,1.881,1.962,1.917,1.951,1.954L1.937,2.015c-0.02,0.071-0.04,0.147-0.063,0.219c-0.009,0.026-0.016,0.053-0.02,0.085
	C1.852,2.362,1.843,2.407,1.83,2.455C1.813,2.526,1.797,2.601,1.802,2.683c0.001,0.014-0.005,0.041-0.015,0.062L1.78,2.755
	L1.777,2.763C1.765,2.818,1.765,2.87,1.765,2.922c0,0.032,0,0.06-0.005,0.088v0.006c0,0.015,0,0.029,0.001,0.042
	c0.001,0.01,0.003,0.026,0,0.03L1.754,3.102L1.752,3.115C1.739,3.206,1.739,3.293,1.74,3.379c0,0.021,0,0.043,0,0.066L1.73,3.451
	L1.727,3.537C1.728,4.088,1.728,4.64,1.728,5.192H1.069H0.322L0.294,5.189L0.229,5.204v0.001L0,5.202l0.186,0.12l0.002,2.728
	l0.059,0.014l0.007,0.001l0.009,0.014h0.584c0.289,0,0.579,0,0.868,0c0.007,0,0.012,0,0.015-0.001
	C1.728,8.084,1.728,8.092,1.728,8.102c0,2.271,0,4.545,0,6.816v0.893c0,0.02,0.001,0.04,0.001,0.061l0.001,0.055l0.02,0.021v-0.005
	l0,0c0.011,0.013,0.034,0.052,0.088,0.052l0.026-0.003c0.016,0,0.032,0,0.047,0h2.894c0.018,0,0.035,0,0.055-0.002l0.074-0.001
	l0.041-0.082l0.002-0.04c0-0.02,0-0.042,0-0.066v-0.947c0.002-2.253,0.002-4.504,0.002-6.757c0-0.009-0.002-0.016-0.004-0.024h1.094
	h0.84c0.004,0,0.008,0,0.012,0.002l0.031,0.002l0.016-0.009c0.057-0.021,0.068-0.071,0.068-0.093c0-0.002,0.002-0.006,0.002-0.008
	c0.014-0.043,0.018-0.086,0.02-0.124C7.06,7.81,7.06,7.78,7.07,7.753l0.016-0.195V7.55C7.082,7.487,7.093,7.425,7.103,7.357
	c0.004-0.026,0.01-0.052,0.014-0.079c0.012-0.041,0.012-0.077,0.012-0.11C7.13,7.147,7.13,7.128,7.134,7.111v-0.01V7.095
	c0-0.068,0.01-0.134,0.02-0.205c0.006-0.03,0.01-0.059,0.014-0.092l0.012-0.173V6.618C7.175,6.564,7.185,6.511,7.195,6.452
	C7.201,6.413,7.208,6.376,7.21,6.337L7.226,6.19V6.179c-0.008-0.047,0-0.094,0.008-0.148C7.242,5.99,7.248,5.943,7.248,5.897
	l0.008-0.013C7.269,5.843,7.269,5.804,7.269,5.77c0-0.018,0.002-0.037,0.004-0.053l0.002-0.007V5.703
	C7.269,5.62,7.285,5.538,7.3,5.449c0.004-0.027,0.01-0.055,0.012-0.083c0.002-0.004,0.002-0.008,0.006-0.013
	C7.32,5.333,7.335,5.258,7.259,5.211z"/>
</svg>
