<?xml version="1.0" encoding="utf-8"?>
<!-- Generator: Adobe Illustrator 16.0.0, SVG Export Plug-In . SVG Version: 6.00 Build 0)  -->
<!DOCTYPE svg PUBLIC "-//W3C//DTD SVG 1.1//EN" "http://www.w3.org/Graphics/SVG/1.1/DTD/svg11.dtd">
<svg version="1.1" id="Layer_1" xmlns="http://www.w3.org/2000/svg" xmlns:xlink="http://www.w3.org/1999/xlink" x="0px" y="0px"
	 width="25px" height="25px" viewBox="0 0 25 25" enable-background="new 0 0 25 25" xml:space="preserve">
<g>
	<path fill="#D03327" d="M15.408,20.627c-2.191,0-4.381,0-6.573,0c-0.156-0.026-0.313-0.068-0.469-0.078
		c-2.271-0.118-4.07-1.766-4.154-4.033c-0.097-2.597-0.094-5.202-0.002-7.799c0.076-2.223,1.801-3.944,4.022-4.02
		c2.583-0.09,5.173-0.077,7.761-0.004c1.969,0.057,3.447,1.374,3.918,3.301c0.105,0.437,0.152,0.886,0.227,1.329
		c0,2.193,0,4.384,0,6.573c-0.027,0.181-0.068,0.362-0.08,0.546c-0.113,1.939-1.391,3.49-3.279,3.949
		C16.328,20.498,15.865,20.549,15.408,20.627z M18.736,12.6c-0.02,0-0.039-0.001-0.057-0.001c0-0.574,0.006-1.149-0.002-1.722
		c-0.012-0.587-0.041-1.173-0.064-1.761c-0.074-1.788-1.209-2.964-2.992-2.995c-2.334-0.039-4.67-0.039-7.004,0
		C6.834,6.152,5.661,7.33,5.633,9.115c-0.036,2.334-0.039,4.671,0.001,7.004c0.03,1.768,1.192,2.941,2.962,2.973
		c2.347,0.045,4.697,0.041,7.044,0.002c1.625-0.028,2.697-0.945,2.891-2.542C18.693,15.248,18.674,13.92,18.736,12.6z"/>
	<path fill="#D03327" d="M16.244,12.61c0,2.28-1.844,4.124-4.125,4.12c-2.282-0.002-4.133-1.851-4.128-4.122
		c0.005-2.28,1.854-4.13,4.128-4.127C14.4,8.482,16.242,10.326,16.244,12.61z M12.132,9.958c-1.476-0.003-2.657,1.161-2.662,2.618
		c-0.008,1.5,1.156,2.682,2.636,2.684c1.474,0.004,2.662-1.162,2.666-2.618C14.777,11.145,13.613,9.96,12.132,9.958z"/>
	<path fill="#D03327" d="M16.389,7.361c0.533-0.004,0.971,0.42,0.975,0.955c0.012,0.528-0.416,0.978-0.943,0.996
		c-0.525,0.015-1.006-0.454-1.004-0.983C15.418,7.802,15.857,7.365,16.389,7.361z"/>
</g>
</svg>
