<?xml version="1.0" encoding="utf-8"?>
<!-- Generator: Adobe Illustrator 16.0.0, SVG Export Plug-In . SVG Version: 6.00 Build 0)  -->
<!DOCTYPE svg PUBLIC "-//W3C//DTD SVG 1.1//EN" "http://www.w3.org/Graphics/SVG/1.1/DTD/svg11.dtd">
<svg version="1.1" id="Layer_1" xmlns="http://www.w3.org/2000/svg" xmlns:xlink="http://www.w3.org/1999/xlink" x="0px" y="0px"
	 width="200px" height="150px" viewBox="0 0 200 150" enable-background="new 0 0 200 150" xml:space="preserve">
<g>
	<path fill-rule="evenodd" clip-rule="evenodd" fill="#FFFFFF" d="M199.993,51.259c0-0.257-0.004-0.514-0.018-0.771
		c-0.14-2.514-1.942-4.23-4.438-4.23c-18.515,0-37.029,0-55.544,0c-0.121,0-0.244-0.012-0.363,0.002
		c-0.271,0.032-0.381-0.065-0.366-0.351c0.021-0.377-0.02-0.758,0.012-1.133c0.03-0.355-0.11-0.422-0.438-0.42
		c-1.949,0.015-3.899-0.006-5.849,0.018c-0.405,0.005-0.496-0.104-0.495-0.5c0.016-4.05,0.005-8.101,0.018-12.152
		c0.001-0.372-0.055-0.514-0.482-0.513c-7.617,0.015-15.235,0.014-22.853,0.002c-0.385,0-0.474,0.114-0.471,0.482
		c0.017,2.191,0.003,4.383,0.014,6.574c0.001,0.328-0.047,0.535-0.437,0.464c-0.333-0.061-0.393,0.107-0.391,0.408
		c0.012,1.935,0.013,3.87,0,5.804c-0.002,0.32,0.096,0.45,0.41,0.397c0.355-0.06,0.424,0.108,0.42,0.433
		c-0.016,1.436,0.013,2.872-0.019,4.307c-0.01,0.451,0.129,0.538,0.555,0.537c9.825-0.013,19.648-0.009,29.473-0.009
		c0.076,0,0.152-0.008,0.227,0.001c0.233,0.027,0.322-0.068,0.315-0.307c-0.014-0.483,0.019-0.969-0.011-1.451
		c-0.024-0.378,0.063-0.511,0.484-0.511c14.313,0.013,28.626,0.011,42.939,0.011c0.164,0,0.328-0.014,0.486,0.069
		c1.935,1.011,4.029,1.733,5.724,3.176c0.11,0.094,0.387,0.155,0.264,0.334c-0.121,0.176-0.322,0.375-0.604,0.32
		c-0.103-0.02-0.2-0.066-0.299-0.104c-1.351-0.524-2.701-1.046-4.049-1.575c-0.214-0.084-0.428-0.129-0.658-0.143
		c-1.673-0.103-3.346-0.223-5.02-0.323c-0.675-0.04-1.347-0.103-2.025,0.072c-1.373,0.354-2.757,0.663-4.136,0.995
		c-0.261,0.063-0.519,0.122-0.749,0.294c-1.367,1.021-2.746,2.029-4.119,3.043c-0.094,0.069-0.215,0.117-0.249,0.256
		c0.178,0.031,0.323-0.068,0.479-0.113c2.832-0.822,5.571-1.885,8.205-3.21c0.786-0.396,1.56-0.614,2.466-0.482
		c1.192,0.172,2.403,0.216,3.606,0.315c-0.094,0.083-0.19,0.121-0.291,0.139c-1.248,0.221-2.499,0.427-3.744,0.664
		c-0.762,0.145-1.535,0.207-2.23,0.662c-1.187,0.777-2.409,1.504-3.649,2.193c-0.798,0.444-1.445,1.003-1.953,1.763
		c-0.452,0.677-0.937,1.34-1.469,1.956c-1.267,1.465-2.122,3.124-2.64,4.989c-0.2,0.722-0.401,1.405-0.265,2.163
		c0.053,0.288,0.083,0.374,0.369,0.22c0.764-0.409,1.578-0.685,2.432-0.83c0.281-0.048,0.395-0.195,0.463-0.456
		c0.268-1.021,0.555-2.038,0.834-3.056c0.039-0.001,0.078-0.003,0.118-0.004c-0.155,0.831-0.31,1.661-0.466,2.491
		c-0.161,0.847-0.163,0.83,0.688,0.795c0.327-0.014,0.46-0.093,0.512-0.443c0.148-1.019,0.352-2.029,0.523-2.989
		c0,0.997-0.002,2.038,0.002,3.08c0,0.11-0.06,0.259,0.104,0.309c0.168,0.051,0.264-0.063,0.305-0.197
		c0.104-0.343,0.371-0.431,0.677-0.503c1.116-0.263,2.224-0.566,3.345-0.8c0.443-0.093,0.561-0.271,0.555-0.71
		c-0.027-1.731-0.012-3.463-0.012-5.325c0.055,0.168,0.072,0.208,0.079,0.249c0.272,1.684,0.566,3.364,0.79,5.054
		c0.034,0.259,0.359,0.284,0.271,0.529c-0.184,0.519-0.006,1.021,0.078,1.52c0.089,0.524,0.071,1.076,0.324,1.567
		c0.345-2.388,0.687-4.776,1.041-7.163c0.052-0.353-0.045-0.846,0.229-1.013c0.229-0.141,0.663,0.05,1.006,0.095
		c0.523,0.068,1.047,0.146,1.571,0.201c0.356,0.037,0.356,0.142,0.148,0.402c-0.847,1.063-1.672,2.143-2.516,3.208
		c-0.191,0.242-0.324,0.497-0.406,0.795c-0.322,1.161-0.66,2.317-0.992,3.476c-0.256,0.955-0.521,1.907-0.764,2.865
		c-0.116,0.461-0.321,0.903-0.326,1.392l0.007,0.007c0.374-0.355,0.623-0.807,0.922-1.219c1.245-1.713,2.717-3.142,4.692-4.011
		c2.053-0.903,4.137-1.176,6.304-0.495c1.981,0.623,3.965,2.744,3.321,5.496c-0.046,0.193,0.016,0.354,0.095,0.52
		c0.78,1.633,1.561,3.267,2.334,4.904c0.094,0.2,0.207,0.37,0.404,0.467c0.288,0.143,0.386,0.385,0.434,0.688
		c0.096,0.598,0.221,1.19,0.35,1.869c0.334-0.389,0.597-0.699,0.864-1.004c0.101-0.115,0.161-0.302,0.39-0.147
		c0.188,0.127,0.204,0.243,0.133,0.449c-0.288,0.826-0.551,1.66-0.829,2.489c-0.073,0.218-0.11,0.434-0.084,0.666
		c0.188,1.725,0.369,3.451,0.556,5.176c0.063,0.576,0.135,1.149,0.21,1.786c0.491-0.366,0.921-0.686,1.394-1.038
		c0.041,0.599,0.032,1.113-0.129,1.629c-0.224,0.718-0.557,1.449-0.568,2.178c-0.017,1.139,0.197,2.281,0.318,3.422
		c0.008,0.082-0.021,0.261,0.16,0.177c0.327-0.15,0.223,0.11,0.239,0.242c0.107,0.88-0.065,1.755-0.025,2.642
		c0.087,1.928,0.025,3.864,0.022,5.796c0,0.038,0.009,0.097-0.104,0.098c-0.281-0.457-0.574-0.934-0.923-1.501
		c-0.473,1.491-0.912,2.875-1.371,4.322c-1.256-1.175-2.539-2.242-3.657-3.459c-1.114-1.213-2.064-2.577-3.087-3.875
		c-0.031,0.023-0.063,0.048-0.094,0.071c0.625,1.384,1.258,2.765,1.87,4.154c0.146,0.329,0.347,0.583,0.629,0.802
		c1.478,1.15,2.945,2.313,4.416,3.472c0.046,0.045,0.093,0.091,0.139,0.136c-0.046-0.045-0.093-0.091-0.139-0.136
		c-0.027,0.028-0.054,0.057-0.081,0.086c-1.467-0.776-2.936-1.551-4.398-2.333c-0.246-0.131-0.494-0.207-0.772-0.229
		c-1.521-0.124-3.056-0.16-4.553-0.422c-1.056-0.184-1.591,0.463-2.292,1.001c2.675-0.38,5.089,0.523,7.509,1.388
		c-2.175,0.133-4.35,0.265-6.614,0.403c0.133,0.074,0.179,0.111,0.23,0.129c1.287,0.433,2.574,0.864,3.863,1.292
		c0.111,0.037,0.237,0.064,0.353,0.053c1.142-0.12,2.291-0.19,3.419-0.39c1.015-0.179,1.94,0.025,2.869,0.361
		c0.119,0.043,0.203,0.125,0.284,0.216c0.685,0.767,1.37,1.532,2.056,2.298c0.098,0.11,0.256,0.229,0.133,0.385
		c-0.136,0.172-0.273-0.013-0.392-0.07c-1.222-0.594-2.438-1.198-3.659-1.793c-0.109-0.053-0.211-0.183-0.39-0.082
		c0.797,1.27,1.59,2.533,2.384,3.796c-0.266-0.017-0.457-0.1-0.645-0.188c-2.563-1.215-5.109-2.47-7.941-2.965
		c-0.709-0.124-1.408-0.035-2.115-0.031c1.688,0.809,3.368,1.597,5.073,2.328c0.729,0.313,1.319,0.736,1.798,1.373
		c0.633,0.842,1.33,1.635,2.008,2.458c-0.25,0.147-0.409-0.005-0.573-0.087c-1.782-0.892-3.562-1.788-5.343-2.68
		c-0.133-0.067-0.255-0.193-0.508-0.116c1.172,0.869,2.295,1.7,3.417,2.532c-0.015,0.03-0.028,0.059-0.043,0.088
		c-2.294-0.687-4.587-1.373-6.88-2.059c-0.015,0.036-0.029,0.072-0.045,0.108c0.888,0.496,1.775,0.99,2.663,1.485
		c-1.966-0.241-3.872-0.702-5.828-0.877c1.638,0.625,3.276,1.25,5.01,1.912c-57.282,0-114.453,0-171.752,0
		c1.808-0.691,3.501-1.338,5.195-1.986c-0.009-0.028-0.018-0.057-0.027-0.085c-1.984,0.37-3.968,0.74-5.952,1.11
		c-0.008-0.027-0.017-0.055-0.025-0.083c0.889-0.496,1.779-0.992,2.668-1.488c-0.017-0.034-0.033-0.067-0.049-0.102
		c-2.288,0.685-4.575,1.369-6.863,2.054c-0.013-0.035-0.026-0.069-0.039-0.103c1.108-0.822,2.216-1.644,3.409-2.529
		c-0.32-0.031-0.45,0.09-0.593,0.162c-1.768,0.886-3.532,1.779-5.299,2.666c-0.157,0.079-0.317,0.235-0.549,0.062
		c0.906-1.097,1.797-2.181,2.697-3.255c0.081-0.097,0.224-0.148,0.346-0.203c1.677-0.761,3.354-1.518,5.032-2.277
		c0.277-0.125,0.551-0.258,0.905-0.425c-0.752,0-1.43-0.122-2.044,0.023c-1.844,0.437-3.711,0.814-5.413,1.729
		c-0.956,0.514-1.967,0.923-2.957,1.371c-0.107,0.049-0.215,0.184-0.388,0.06c0.795-1.265,1.588-2.526,2.382-3.789
		c-1.39,0.578-2.699,1.227-4.013,1.867c-0.129,0.063-0.285,0.268-0.424,0.091c-0.156-0.198,0.077-0.322,0.187-0.447
		c0.568-0.647,1.149-1.283,1.717-1.93c0.686-0.782,1.614-0.992,2.567-0.944c1.264,0.064,2.523,0.251,3.782,0.408
		c0.462,0.058,0.885-0.001,1.322-0.161c0.907-0.331,1.83-0.615,2.744-0.927c0.275-0.094,0.572-0.142,0.875-0.342
		c-2.267-0.138-4.464-0.271-6.662-0.406c1.232-0.443,2.478-0.794,3.711-1.184c1.265-0.399,2.572-0.049,3.925-0.241
		c-0.375-0.269-0.711-0.474-1.004-0.728c-0.305-0.264-0.631-0.292-1.008-0.254c-1.292,0.129-2.585,0.258-3.88,0.346
		c-0.931,0.063-1.792,0.255-2.616,0.742c-1.181,0.698-2.419,1.298-3.633,1.939c-0.019-0.025-0.038-0.05-0.057-0.075
		c1.503-1.189,3.004-2.38,4.511-3.566c0.205-0.162,0.375-0.334,0.484-0.58c0.589-1.323,1.191-2.64,1.781-3.963
		c0.055-0.124,0.181-0.244,0.094-0.419c-0.224,0.132-0.33,0.356-0.476,0.543c-0.857,1.093-1.636,2.258-2.578,3.271
		c-1.077,1.159-2.304,2.179-3.451,3.274c-0.266,0.254-0.308,0.128-0.387-0.128c-0.37-1.196-0.753-2.387-1.13-3.581
		c-0.033-0.106-0.042-0.225-0.161-0.3c-0.328,0.527-0.647,1.038-1.003,1.608c0-1.111-0.067-2.128,0.02-3.132
		c0.086-1-0.221-2.001-0.034-2.966c0.195-1.004-0.273-1.975,0.043-2.991c0.438,0.416,0.386,0.034,0.413-0.26
		c0.035-0.375,0.078-0.75,0.131-1.124c0.177-1.246,0.293-2.481-0.23-3.688c-0.149-0.343-0.208-0.724-0.316-1.085
		c-0.109-0.364-0.078-0.724-0.039-1.156c0.501,0.375,0.944,0.705,1.416,1.057c0.038-0.167,0.075-0.282,0.087-0.399
		c0.219-2.041,0.424-4.083,0.66-6.122c0.063-0.541,0.003-1.039-0.187-1.543c-0.217-0.578-0.411-1.167-0.583-1.76
		c-0.066-0.227-0.347-0.507,0.031-0.71c0.388-0.209,0.414,0.232,0.589,0.378c0.237,0.197,0.417,0.461,0.671,0.753
		c0.109-0.582,0.217-1.079,0.292-1.582c0.065-0.445,0.145-0.86,0.621-1.064c0.181-0.078,0.22-0.279,0.297-0.44
		c0.877-1.838,1.751-3.678,2.63-5.515c0.063-0.131,0.089-0.301,0.293-0.405c-0.163,1.809-0.321,3.565-0.478,5.312
		c1.01-0.983,1.989-1.945,2.98-2.896c0.196-0.188,0.3-0.401,0.361-0.657c0.459-1.937,0.923-3.872,1.387-5.808
		c0.032-0.132,0.082-0.26,0.158-0.497c0.401,1.112,0.76,2.112,1.147,3.188c0.19-0.521,0.353-0.968,0.516-1.415
		c-0.06,1.771-0.213,3.515-0.336,5.261c-0.081,1.154-0.255,2.304-0.231,3.465c0.123-0.058,0.127-0.19,0.167-0.293
		c0.703-1.79,1.39-3.587,2.105-5.373c0.319-0.797,0.556-1.63,0.988-2.38c0-0.006,0-0.011,0-0.017l0.006,0.005
		c-0.002,0.004-0.004,0.008-0.006,0.012c-0.003,0.129,0.007,0.261-0.017,0.386c-0.483,2.488-0.95,4.979-1.471,7.459
		c-0.125,0.596,0.131,0.992,0.425,1.517c0.036-0.141,0.052-0.193,0.063-0.247c0.396-1.951,0.803-3.9,1.277-5.835
		c0.697-2.848,1.464-5.674,2.925-8.247c0.268-0.471,0.241-0.766-0.104-1.176c-0.814-0.968-1.569-1.986-2.395-3.044
		c0.935-0.127,1.8-0.234,2.662-0.368c0.316-0.049,0.418,0.044,0.456,0.36c0.1,0.828,0.238,1.65,0.37,2.528
		c0.375-0.469,0.708-0.876,1.029-1.292c0.454-0.589,1.232-0.968,1.142-1.961c0.176,0.235,0.044,0.431,0.215,0.59
		c0.756-0.617,1.551-1.184,2.422-1.635c0.882-0.457,1.822-0.745,2.808-0.949c-0.105-0.215-0.274-0.264-0.411-0.346
		c-1.578-0.95-3.161-1.893-4.736-2.848c-0.237-0.144-0.48-0.244-0.751-0.291c-0.937-0.163-1.873-0.325-2.809-0.493
		c-0.822-0.147-1.644-0.303-2.465-0.454c1.487-0.177,2.961-0.3,4.436-0.433c0.294-0.026,0.558,0.02,0.828,0.149
		c2.955,1.415,5.949,2.733,9.116,3.614c0.145,0.041,0.285,0.144,0.503,0.085c-0.131-0.1-0.224-0.174-0.319-0.245
		c-1.325-0.977-2.654-1.949-3.973-2.935c-0.261-0.195-0.536-0.322-0.85-0.394c-0.882-0.202-1.758-0.436-2.643-0.619
		c-0.825-0.17-1.623-0.53-2.476-0.493c-1.796,0.076-3.589,0.214-5.384,0.307c-0.747,0.039-1.449,0.202-2.141,0.494
		c-1.056,0.446-2.135,0.837-3.204,1.251c-0.126,0.049-0.251,0.112-0.383,0.136c-0.277,0.052-0.436-0.173-0.62-0.314
		c-0.108-0.083,0.02-0.157,0.086-0.203c0.66-0.452,1.249-1.012,1.963-1.377c1.209-0.618,2.442-1.188,3.658-1.794
		c0.307-0.153,0.611-0.217,0.953-0.217c14.645,0.006,29.289,0.005,43.934,0.005c0.09,0,0.183,0.01,0.271-0.002
		c0.254-0.032,0.346,0.065,0.336,0.327c-0.018,0.483,0.026,0.97-0.015,1.45c-0.035,0.419,0.122,0.492,0.507,0.491
		c4.852-0.013,9.703-0.017,14.554,0.004c0.486,0.002,0.562-0.149,0.554-0.581c-0.026-1.38-0.01-2.76-0.01-4.14
		c0.384,0.685,0.743,1.36,1.237,1.95c2.023,2.414,4.607,3.413,7.678,2.737c3.061-0.674,5.105-2.624,5.831-5.68
		c0.554-2.334,0.279-4.749,0.153-7.13c-0.017-0.313,0.021-0.387,0.336-0.372c0.845,0.039,1.692,0.065,2.538,0.047
		c0.392-0.008,0.462,0.123,0.461,0.486c-0.013,4.035-0.001,8.07-0.018,12.105c-0.002,0.437,0.074,0.585,0.556,0.58
		c2.539-0.029,5.078-0.029,7.617,0c0.486,0.006,0.555-0.149,0.553-0.581c-0.016-4.035-0.005-8.07-0.017-12.105
		c-0.001-0.35,0.08-0.467,0.447-0.457c0.937,0.027,1.875-0.006,2.811,0.017c0.338,0.008,0.437-0.087,0.434-0.43
		c-0.017-1.798-0.018-3.597,0-5.395c0.004-0.37-0.119-0.452-0.466-0.451c-2.342,0.005-4.685-0.011-7.027-0.021
		c-0.008-0.026-0.01-0.054-0.005-0.081c-2.842,0-5.684,0-8.525,0c-0.013,0.023-0.016,0.048-0.009,0.074
		c-0.009,1.633-0.019,3.265-0.029,4.897l-0.041,0.007c-0.128-0.079-0.141-0.226-0.196-0.344c-2.534-5.405-9.726-6.127-13.286-1.336
		c-0.394,0.53-0.683,1.118-1.001,1.699c-0.032-1.499-0.043-2.988-0.023-4.477c0.004-0.343-0.093-0.427-0.43-0.427
		c-4.911,0.011-9.821,0.012-14.732,0c-0.364-0.001-0.452,0.103-0.449,0.456c0.016,2.19,0.004,4.382,0.013,6.572
		c0.001,0.299-0.024,0.514-0.402,0.448c-0.335-0.058-0.397,0.118-0.396,0.416c0.01,1.935,0.01,3.868,0,5.803
		c-0.001,0.285,0.068,0.425,0.379,0.389c0.126-0.015,0.327-0.068,0.375,0.069c0.089,0.255,0.087,0.549,0.006,0.802
		c-0.059,0.182-0.295,0.086-0.449,0.087c-5.243,0.004-10.486,0.004-15.729,0.004c-13.886,0-27.772,0.005-41.658-0.007
		c-1.449-0.001-2.52,0.621-3.321,1.774c-0.537,0.773-0.813,1.645-0.87,2.585C0.047,50.605,0.023,50.608,0,50.617
		c0,21.313,0,42.625,0,63.937c0.025,0.006,0.05,0.009,0.076,0.007c0.218,2.718,1.939,4.319,4.647,4.319c63.54,0,127.08,0,190.62,0
		c0.211,0,0.423,0.004,0.635-0.001c0.91-0.021,1.717-0.319,2.393-0.934c1.199-1.091,1.631-2.478,1.631-4.068
		C199.99,93.004,199.994,72.131,199.993,51.259z M123.691,49.546c0.005,0.353-0.086,0.459-0.449,0.456
		c-2.266-0.017-4.532-0.008-6.798-0.008c-2.236,0-4.472-0.008-6.708,0.008c-0.362,0.003-0.454-0.102-0.45-0.456
		c0.02-1.465-0.002-2.931,0.016-4.396c0.004-0.333-0.077-0.483-0.423-0.424c-0.311,0.054-0.411-0.071-0.407-0.393
		c0.016-1.526,0.018-3.052-0.001-4.578c-0.005-0.351,0.111-0.47,0.439-0.418c0.337,0.054,0.392-0.119,0.39-0.416
		c-0.01-2.221,0.001-4.442-0.013-6.663c-0.002-0.334,0.08-0.433,0.425-0.432c4.517,0.012,9.034,0.012,13.551,0
		c0.343-0.001,0.432,0.093,0.428,0.431c-0.019,1.39-0.022,2.78,0.001,4.169c0.007,0.385-0.072,0.513-0.489,0.508
		c-2.024-0.025-4.049-0.003-6.073-0.02c-0.341-0.003-0.444,0.086-0.425,0.427c0.029,0.512,0.027,1.028,0,1.54
		c-0.018,0.343,0.066,0.492,0.441,0.462c0.42-0.034,0.846,0.002,1.268-0.012c0.248-0.008,0.356,0.071,0.355,0.332
		c-0.006,1.586-0.007,3.173,0.001,4.759c0.001,0.24-0.084,0.314-0.316,0.307c-0.453-0.014-0.906-0.013-1.359,0.002
		c-0.125,0.004-0.365-0.106-0.354,0.125c0.01,0.207,0.244,0.114,0.376,0.114c2.01,0.006,4.02,0.018,6.028-0.006
		c0.437-0.006,0.558,0.105,0.548,0.546C123.664,46.857,123.671,48.202,123.691,49.546z M123.825,40.977
		c0,1.012-0.009,2.024,0.005,3.036c0.004,0.278-0.085,0.359-0.36,0.356c-1.253-0.013-2.507-0.017-3.76,0.002
		c-0.323,0.005-0.362-0.126-0.361-0.397c0.01-1.601-0.006-3.201,0.014-4.802c0.004-0.357-0.091-0.475-0.45-0.447
		c-0.42,0.032-0.845-0.001-1.268,0.011c-0.22,0.006-0.318-0.045-0.331-0.296c-0.045-0.902-0.056-0.902,0.858-0.902
		c1.736,0,3.473,0.01,5.209-0.008c0.363-0.004,0.458,0.105,0.451,0.458C123.81,38.983,123.825,39.98,123.825,40.977z M138.669,49.6
		c0.004,0.322-0.092,0.401-0.406,0.401c-4.471-0.01-8.943-0.011-13.415,0.001c-0.341,0.001-0.427-0.091-0.426-0.428
		c0.014-2.885,0.008-5.771,0.008-8.656c0-2.871,0.007-5.741-0.009-8.611c-0.002-0.368,0.079-0.484,0.466-0.48
		c2.19,0.02,4.381,0.019,6.571,0c0.382-0.003,0.473,0.11,0.471,0.481c-0.013,4.048-0.003,8.097-0.017,12.146
		c-0.001,0.401,0.083,0.541,0.517,0.535c1.918-0.025,3.837-0.002,5.755-0.019c0.361-0.003,0.494,0.065,0.486,0.462
		C138.646,46.82,138.652,48.211,138.669,49.6z M190.655,48.417c0.33,0.014,0.71-0.226,0.936,0.208
		C191.278,48.556,190.967,48.486,190.655,48.417z M195.893,48.922c-0.247,0.141-0.5,0.271-0.799,0.433
		c0.152-1.069,0.434-1.228,1.519-0.882C196.408,48.697,196.133,48.785,195.893,48.922z M197.069,48.712
		c0.711,0.375,1.218,1.303,1.138,2.208c-0.314-0.838-0.791-1.486-1.142-2.203L197.069,48.712z M197.681,80.269
		c0.192-0.476,0.354-0.876,0.545-1.346C198.405,79.545,198.167,79.914,197.681,80.269z M107.284,31.833
		c0.343-0.002,0.464,0.072,0.458,0.442c-0.023,1.419-0.018,2.839-0.002,4.259c0.003,0.302-0.091,0.385-0.385,0.38
		c-0.937-0.017-1.874,0.015-2.809-0.016c-0.4-0.013-0.504,0.097-0.502,0.499c0.016,4.003,0.01,8.006,0.009,12.009
		c0,0.587,0,0.587-0.573,0.587c-2.115,0-4.229,0.002-6.344-0.001c-0.645-0.001-0.565,0.08-0.565-0.589
		c-0.002-4.003-0.009-8.006,0.009-12.008c0.002-0.445-0.129-0.559-0.557-0.549c-0.936,0.021-1.873-0.019-2.81-0.017
		c-0.25,0-0.342-0.071-0.34-0.333c0.011-1.465,0.017-2.931-0.003-4.396c-0.004-0.348,0.164-0.346,0.414-0.345
		c2.356,0.004,4.712,0.002,7.068,0.002c0,0.027,0,0.055,0,0.082C102.662,31.84,104.973,31.846,107.284,31.833z M77.909,38.64
		c0.07-3.625,3.188-6.673,6.811-6.811c3.683-0.141,6.707,2.609,7.281,5.748c0.209,1.139,0.099,2.29,0.135,3.456
		c-0.047,1.272,0.09,2.572-0.242,3.854c-0.771,2.979-3.563,5.213-6.646,5.28c-3.511,0.076-6.412-2.179-7.193-5.606
		c-0.087-0.38-0.14-0.775-0.144-1.164C77.895,41.812,77.878,40.225,77.909,38.64z M61.942,44.342
		c0.015-1.556,0.013-3.113,0.001-4.669c-0.002-0.286,0.063-0.437,0.373-0.382c0.375,0.067,0.442-0.113,0.44-0.453
		c-0.014-2.191,0-4.383-0.014-6.574c-0.002-0.324,0.062-0.438,0.417-0.437c4.518,0.013,9.037,0.014,13.555-0.001
		c0.385-0.001,0.438,0.137,0.437,0.469c-0.011,2.886-0.006,5.772-0.006,8.659c0,2.856-0.007,5.712,0.009,8.568
		c0.002,0.374-0.093,0.481-0.473,0.479c-4.488-0.013-8.977-0.013-13.464,0c-0.375,0.001-0.482-0.09-0.476-0.471
		c0.023-1.466-0.001-2.932,0.017-4.397c0.004-0.334-0.078-0.483-0.425-0.425C62.044,44.757,61.938,44.65,61.942,44.342z
		 M9.471,48.417c-0.314,0.07-0.628,0.141-0.963,0.216C8.646,48.313,8.646,48.313,9.471,48.417z M4.63,48.354
		c0.137-0.004,0.167,0.095,0.198,0.201c0.073,0.242,0.153,0.482,0.268,0.84c-0.601-0.326-1.109-0.602-1.675-0.909
		C3.86,48.295,4.25,48.368,4.63,48.354z M3.039,48.662c0.017,0.022,0.034,0.042,0.055,0.061c-0.456,0.724-0.902,1.453-1.223,2.288
		C1.695,50.154,2.219,49.127,3.039,48.662z M1.837,78.795c0.202,0.497,0.372,0.914,0.574,1.408
		C1.863,79.858,1.663,79.457,1.837,78.795z"/>
	<path fill-rule="evenodd" clip-rule="evenodd" fill="#FFFFFF" d="M140.572,67.361c0.004-0.884-0.566-1.477-1.45-1.53
		c-0.698-0.042-1.345,0.149-1.974,0.424c-2.374,1.037-4.191,2.766-5.85,4.696c-0.159,0.185-0.095,0.31,0.013,0.472
		c0.36,0.54,0.724,1.078,1.062,1.633c0.155,0.256,0.255,0.265,0.454,0.042c0.663-0.744,1.337-1.48,2.08-2.148
		c0.193-0.174,0.368-0.385,0.653-0.475c0,0.074,0.008,0.12-0.001,0.163c-0.4,1.981-0.798,3.963-1.205,5.943
		c-0.73,3.562-1.465,7.122-2.203,10.682c-0.064,0.31-0.04,0.458,0.351,0.45c1.238-0.025,2.479-0.018,3.717-0.003
		c0.3,0.003,0.406-0.087,0.464-0.391c0.588-3.036,1.231-6.062,1.789-9.103c0.559-3.049,1.957-5.555,4.497-7.382
		c0.265-0.19,0.508-0.416,0.918-0.54c-0.621,2.937-1.23,5.811-1.837,8.686c-0.61,2.892-1.217,5.783-1.827,8.68
		c0.067,0.018,0.109,0.039,0.151,0.039c1.36,0.002,2.72-0.007,4.081,0.012c0.33,0.005,0.32-0.21,0.355-0.403
		c0.617-3.446,1.447-6.847,2.194-10.266c0.578-2.646,1.877-4.782,4.131-6.312c0.257-0.174,0.506-0.375,0.836-0.42
		c0.055,0.214,0.017,0.407-0.019,0.6c-0.284,1.575-0.721,3.114-1.101,4.667c-0.695,2.84-1.606,5.635-1.893,8.563
		c-0.122,1.251-0.093,2.484,0.749,3.538c0.446,0.559,1.017,0.83,1.74,0.784c0.669-0.043,1.257-0.304,1.82-0.636
		c1.137-0.669,1.992-1.657,2.907-2.578c0.464-0.467,0.938-0.923,1.441-1.417c0.092,0.998,0.28,1.939,0.74,2.805
		c0.635,1.195,1.604,1.805,2.981,1.727c0.709-0.04,1.362-0.258,1.981-0.584c0.995-0.525,1.861-1.233,2.702-1.972
		c0.203-0.179,0.405-0.361,0.695-0.62c-0.08,0.381-0.139,0.629-0.183,0.88c-0.27,1.532,0.67,2.501,2.21,2.313
		c0.796-0.096,1.516-0.381,2.217-0.745c1.527-0.792,2.751-1.955,3.922-3.185c0.116-0.122,0.2-0.298,0.399-0.33
		c0.351,2.013,1.465,3.362,3.436,3.925c1.468,0.419,2.958,0.386,4.435,0.013c3.541-0.895,5.853-4.473,5.214-8.068
		c-0.288-1.618-1.087-2.996-2.073-4.277c-0.646-0.837-1.333-1.642-1.917-2.526c-0.319-0.484-0.585-0.994-0.686-1.565
		c-0.133-0.755-0.168-1.509,0.335-2.171c0.557-0.733,1.174-0.77,1.824-0.118c0.441,0.442,0.732,0.997,1.122,1.478
		c0.619,0.764,1.396,1.028,2.287,0.759c0.841-0.253,1.497-1.083,1.563-1.978c0.105-1.451-0.836-2.792-2.396-3.361
		c-1.025-0.375-2.085-0.433-3.169-0.305c-3.565,0.422-6.222,3.966-5.652,7.52c0.301,1.878,1.168,3.473,2.313,4.947
		c0.668,0.858,1.354,1.706,1.883,2.661c0.614,1.106,0.554,2.208-0.154,3.25c-0.672,0.989-1.688,1.205-2.796,1.13
		c-0.665-0.044-1.106-0.54-1.108-1.202c-0.001-0.316,0.028-0.633,0.055-0.949c0.104-1.292-0.925-2.396-2.213-2.395
		c-0.753,0.001-1.313,0.363-1.797,0.926c-0.225-0.313-0.443-0.583-0.624-0.878c-0.181-0.296-0.311-0.27-0.522-0.02
		c-0.785,0.924-1.645,1.773-2.647,2.464c-0.142,0.098-0.265,0.251-0.487,0.225c0.007-0.126,0.006-0.247,0.021-0.365
		c0.447-3.23,1.072-6.429,1.839-9.597c0.675-2.785,1.403-5.557,2.126-8.33c0.102-0.39,0.002-0.44-0.344-0.348
		c-0.641,0.171-1.283,0.348-1.934,0.474c-0.395,0.077-0.662,0.245-0.794,0.627c-0.077,0.225-0.21,0.301-0.477,0.285
		c-2.818-0.171-5.351,0.524-7.478,2.472c-3.473,3.179-5.564,7.128-6.575,11.687c-0.12,0.544-0.183,1.102-0.286,1.74
		c-0.283-0.346-0.521-0.6-0.716-0.882c-0.183-0.265-0.294-0.296-0.52-0.023c-0.703,0.851-1.457,1.657-2.283,2.392
		c-0.184,0.164-0.348,0.366-0.646,0.457c0.011-0.556,0.122-1.055,0.227-1.553c0.721-3.426,1.706-6.787,2.543-10.184
		c0.339-1.375,0.748-2.738,0.602-4.188c-0.17-1.679-1.35-2.638-3.02-2.411c-0.347,0.047-0.674,0.167-0.992,0.307
		c-1.43,0.633-2.637,1.579-3.744,2.666c-0.117,0.115-0.209,0.275-0.4,0.323c0.019-0.346,0.064-0.664,0.045-0.977
		c-0.021-0.329-0.071-0.664-0.166-0.979c-0.244-0.809-0.893-1.301-1.735-1.36c-0.472-0.032-0.933,0.021-1.386,0.163
		c-0.967,0.304-1.796,0.849-2.599,1.447c-0.934,0.697-1.735,1.543-2.602,2.314c-0.013-0.014-0.027-0.027-0.04-0.041
		c0.006-0.06,0.007-0.121,0.018-0.18C140.332,68.817,140.568,68.108,140.572,67.361z M162.244,81.638
		c0.051-3.216,0.864-6.032,2.345-8.663c0.558-0.992,1.28-1.824,2.351-2.303c0.824-0.368,1.683-0.355,2.552-0.272
		c0.194,0.018,0.173,0.113,0.134,0.281c-0.487,2.069-0.973,4.138-1.431,6.212c-0.309,1.402-0.7,2.768-1.42,4.022
		c-0.479,0.835-1.104,1.546-1.855,2.144c-0.199,0.158-0.418,0.298-0.644,0.417c-1.084,0.573-1.674,0.292-1.904-0.914
		C162.301,82.197,162.195,81.831,162.244,81.638z"/>
	<path fill-rule="evenodd" clip-rule="evenodd" fill="#FFFFFF" d="M66.082,69.363c0.435,0.447,0.725,1.003,1.118,1.481
		c0.603,0.735,1.379,0.988,2.259,0.726c0.807-0.242,1.471-1.046,1.556-1.886c0.151-1.489-0.79-2.87-2.385-3.453
		c-1.026-0.375-2.085-0.434-3.17-0.305c-3.565,0.423-6.225,3.971-5.654,7.518c0.302,1.878,1.17,3.472,2.313,4.948
		c0.675,0.872,1.376,1.728,1.904,2.701c0.594,1.097,0.523,2.185-0.174,3.21c-0.672,0.988-1.688,1.207-2.796,1.131
		c-0.684-0.047-1.113-0.549-1.111-1.246c0.001-0.287,0.022-0.574,0.05-0.859c0.126-1.339-0.914-2.458-2.251-2.439
		c-0.736,0.011-1.278,0.376-1.752,0.926c-0.224-0.313-0.442-0.584-0.623-0.878c-0.181-0.296-0.311-0.271-0.524-0.021
		c-0.795,0.936-1.667,1.793-2.684,2.491c-0.128,0.088-0.241,0.233-0.452,0.193c0.01-0.123,0.014-0.242,0.029-0.36
		c0.433-3.233,1.069-6.43,1.833-9.599c0.672-2.785,1.402-5.558,2.125-8.331c0.104-0.398-0.008-0.435-0.346-0.345
		c-0.642,0.17-1.283,0.348-1.934,0.473c-0.397,0.076-0.664,0.25-0.791,0.63c-0.088,0.264-0.258,0.301-0.525,0.275
		c-0.8-0.074-1.599,0.012-2.395,0.099c-2.259,0.248-4.08,1.37-5.632,2.938c-3.527,3.565-5.633,7.844-6.217,12.835
		c-0.17,1.453-0.032,2.9,0.62,4.251c0.694,1.437,1.748,2.03,3.33,1.874c0.562-0.055,1.089-0.245,1.59-0.498
		c1.034-0.521,1.923-1.248,2.791-2.002c0.218-0.19,0.432-0.385,0.732-0.653c-0.081,0.39-0.145,0.653-0.188,0.918
		c-0.244,1.514,0.689,2.462,2.212,2.274c0.576-0.072,1.122-0.226,1.647-0.466c1.164-0.533,2.215-1.237,3.14-2.12
		c0.577-0.551,1.125-1.132,1.74-1.754c0.398,2.254,1.657,3.606,3.798,4.097c1.36,0.312,2.731,0.266,4.085-0.076
		c3.54-0.896,5.853-4.471,5.216-8.068c-0.283-1.603-1.072-2.97-2.045-4.242c-0.661-0.864-1.373-1.688-1.969-2.601
		c-0.309-0.473-0.563-0.97-0.661-1.527c-0.127-0.723-0.169-1.446,0.28-2.097C64.736,68.712,65.395,68.658,66.082,69.363z
		 M49.835,70.725c-0.52,2.204-1.031,4.409-1.539,6.616c-0.282,1.225-0.667,2.408-1.287,3.509c-0.48,0.854-1.107,1.581-1.869,2.193
		c-0.141,0.113-0.291,0.217-0.445,0.312c-1.267,0.777-1.927,0.464-2.169-0.989c-0.063-0.375-0.042-0.744-0.07-1.12
		c0.099-3.085,0.938-5.956,2.535-8.6c0.636-1.052,1.5-1.843,2.724-2.17c0.635-0.17,1.277-0.148,1.923-0.085
		C49.878,70.413,49.884,70.52,49.835,70.725z"/>
	<path fill-rule="evenodd" clip-rule="evenodd" fill="#FFFFFF" d="M92.863,75.819c0.087-0.397,0.202-0.57,0.662-0.541
		c1.411,0.089,2.813-0.048,4.169-0.453c4.519-1.352,7.61-4.103,8.346-8.94c0.41-2.701-0.494-5.016-2.685-6.73
		c-1.497-1.172-3.252-1.689-5.124-1.852c-3.325-0.289-6.534,0.123-9.583,1.555c-4.839,2.271-10.136,8.393-9.461,16.379
		c0.164,1.939,0.763,3.721,2.069,5.213c0.447,0.511,0.979,0.897,1.652,1.057c1.417,0.337,2.648-0.864,2.361-2.293
		c-0.155-0.773-0.647-1.314-1.206-1.813c-0.824-0.736-1.526-1.557-1.793-2.663c-0.341-1.414-0.25-2.826,0.129-4.213
		c1.086-3.983,3.541-6.877,7.152-8.812c2.452-1.313,5.051-1.885,7.828-1.389c1.985,0.354,3.222,1.593,3.482,3.581
		c0.326,2.49-0.503,4.648-2.097,6.524c-1.232,1.451-2.809,2.142-4.74,1.949c-0.293-0.029-0.403-0.096-0.328-0.408
		c0.867-3.56,1.521-7.173,2.614-10.678c0.059-0.188,0.17-0.371,0.133-0.593c-0.788,0.212-1.542,0.429-2.303,0.617
		c-1.395,0.344-2.816,0.529-4.24,0.702c-0.159,0.019-0.332-0.002-0.382,0.229c-0.171,0.791-0.354,1.578-0.544,2.413
		c0.407-0.065,0.762-0.112,1.113-0.18c0.32-0.062,0.468,0.055,0.429,0.379c-0.04,0.329-0.073,0.661-0.144,0.984
		c-1.018,4.688-2.038,9.375-3.064,14.061c-0.284,1.297-0.575,2.592-1.174,3.794c-0.356,0.714-0.888,1.203-1.646,1.46
		c-0.574,0.195-1.16,0.339-1.753,0.443c-0.254,0.045-0.354,0.143-0.396,0.394c-0.11,0.669-0.249,1.334-0.379,2.001
		c-0.101,0.518-0.101,0.523,0.404,0.39c1.478-0.392,2.97-0.68,4.508-0.685c1.472-0.005,2.917,0.261,4.37,0.427
		c1.668,0.19,3.282,0.022,4.866-0.515c0.13-0.044,0.257-0.078,0.287-0.247c0.163-0.918,0.331-1.835,0.516-2.849
		c-0.533,0.199-0.969,0.366-1.407,0.525c-1.341,0.488-2.708,0.729-4.133,0.441c-0.669-0.135-0.669-0.13-0.503-0.79
		C91.606,81.752,92.212,78.781,92.863,75.819z"/>
	<path fill-rule="evenodd" clip-rule="evenodd" fill="#FFFFFF" d="M21.764,79.387c0.954-3.711,1.625-7.488,2.634-11.186
		c0.585-2.145,1.313-4.239,2.526-6.126c0.352-0.547,0.734-1.076,1.273-1.461c0.577-0.412,1.089-0.418,1.676-0.018
		c0.514,0.351,0.949,0.795,1.39,1.23c0.292,0.287,0.593,0.56,0.952,0.763c1.217,0.691,2.581,0.085,2.884-1.282
		c0.22-0.992-0.14-1.819-0.783-2.534c-1.499-1.667-3.398-1.977-5.47-1.479c-2.393,0.575-4.232,2.012-5.713,3.925
		c-1.815,2.345-2.854,5.055-3.637,7.882c-0.948,3.419-1.564,6.913-2.365,10.365c-0.316,1.365-0.625,2.735-1.258,4.005
		c-0.354,0.712-0.872,1.208-1.64,1.46c-0.618,0.203-1.239,0.385-1.876,0.508c-0.231,0.044-0.336,0.155-0.375,0.377
		c-0.127,0.713-0.245,1.428-0.404,2.134c-0.073,0.322,0.048,0.32,0.289,0.275c2.657-0.492,5.333-0.627,8.029-0.44
		c2.29,0.159,4.573,0.392,6.856,0.614c1.517,0.147,3.032,0.327,4.563,0.137c3.284-0.406,5.531-3.263,5.135-6.559
		c-0.045-0.376-0.154-0.738-0.33-1.077c-0.542-1.048-1.544-1.5-2.561-1.155c-0.913,0.311-1.46,1.355-1.241,2.448
		c0.106,0.53,0.297,1.043,0.434,1.568c0.288,1.11-0.361,1.808-1.495,1.638c-1.183-0.177-2.325-0.521-3.477-0.822
		c-1.793-0.469-3.597-0.802-5.46-0.583c-0.686,0.081-1.367,0.19-2.084,0.291c0.024-0.093,0.03-0.149,0.053-0.199
		C20.972,82.58,21.354,80.979,21.764,79.387z"/>
	<path fill-rule="evenodd" clip-rule="evenodd" fill="#FFFFFF" d="M118.04,65.445c-0.372,0.078-0.649,0.217-0.768,0.593
		c-0.087,0.275-0.261,0.321-0.55,0.307c-2.71-0.14-5.167,0.496-7.257,2.335c-2.37,2.085-4.108,4.613-5.352,7.492
		c-1.075,2.488-1.813,5.057-1.634,7.811c0.066,1.022,0.318,1.995,0.847,2.882c0.588,0.987,1.448,1.5,2.612,1.502
		c1.089,0.002,2.028-0.417,2.911-0.997c0.948-0.623,1.813-1.351,2.72-2.225c-0.072,0.322-0.121,0.525-0.163,0.73
		c-0.354,1.723,0.558,2.706,2.296,2.485c1.126-0.143,2.083-0.681,3.016-1.276c1.73-1.104,3.001-2.702,4.434-4.126
		c0.14-0.14,0.116-0.244,0.011-0.388c-0.418-0.573-0.835-1.148-1.235-1.734c-0.14-0.206-0.221-0.171-0.361-0.01
		c-0.469,0.533-0.938,1.068-1.47,1.54c-0.527,0.466-1.056,0.93-1.781,1.327c0.815-6.447,2.513-12.599,4.129-18.83
		C119.588,65.073,118.818,65.281,118.04,65.445z M114.291,71.477c-0.523,2.23-1.01,4.47-1.575,6.689
		c-0.444,1.75-1.209,3.348-2.592,4.581c-0.431,0.384-0.883,0.733-1.442,0.913c-0.726,0.233-1.176,0.007-1.385-0.717
		c-0.16-0.555-0.2-1.127-0.188-1.705c0.071-3.052,0.909-5.886,2.463-8.506c0.814-1.373,1.965-2.275,3.623-2.388
		c0.03-0.002,0.06-0.009,0.09-0.012C114.482,70.228,114.562,70.32,114.291,71.477z"/>
	<path fill-rule="evenodd" clip-rule="evenodd" fill="#FFFFFF" d="M137.442,52.229c-0.341-0.096-0.687-0.102-1.033-0.097
		c-2.407,0.03-4.463,0.957-6.252,2.509c-1.95,1.692-3.054,3.892-3.742,6.342c-0.889,3.169-1.547,6.391-2.217,9.609
		c-0.915,4.4-2.005,8.766-2.626,13.224c-0.136,0.97-0.276,1.95,0.035,2.919c0.362,1.13,1.179,1.695,2.358,1.62
		c0.851-0.055,1.61-0.396,2.323-0.831c2.263-1.378,4.111-3.209,5.729-5.289c0.146-0.187,0.114-0.304-0.023-0.465
		c-0.353-0.414-0.69-0.841-1.035-1.261c-0.39-0.474-0.395-0.476-0.82-0.003c-0.566,0.629-1.136,1.255-1.764,1.824
		c-0.736,0.667-1.469,1.342-2.412,1.864c0.052-0.316,0.08-0.541,0.125-0.761c1.411-6.932,2.815-13.865,4.243-20.793
		c0.346-1.682,0.642-3.382,1.261-4.996c0.378-0.987,0.583-1.109,1.623-1.06c0.315,0.015,0.632,0.048,0.945,0.095
		c0.938,0.141,1.865,0.378,2.829,0.294c1.278-0.112,2.142-0.979,2.263-2.295C139.354,53.574,138.594,52.553,137.442,52.229z"/>
	<path fill-rule="evenodd" clip-rule="evenodd" fill="#FFFFFF" d="M112.782,108.125c-0.253,1.24-0.562,2.469-0.428,3.759
		c0.174,1.673,1.427,2.407,2.931,1.671c0.337-0.165,0.659-0.37,0.963-0.59c1.06-0.766,1.969-1.692,2.797-2.7
		c0.539-0.656,0.538-0.657,0.085-1.4c-0.102-0.167-0.227-0.326-0.303-0.504c-0.169-0.397-0.343-0.338-0.606-0.073
		c-0.584,0.59-1.19,1.159-1.792,1.732c-0.156,0.148-0.29,0.331-0.532,0.421c-0.019-0.452,0.068-0.852,0.146-1.25
		c0.472-2.431,1.228-4.791,1.813-7.192c0.247-1.01,0.547-2.013,0.487-3.072c-0.092-1.631-1.291-2.436-2.828-1.901
		c-0.591,0.206-1.114,0.535-1.617,0.898c-0.879,0.635-1.698,1.343-2.53,2.068c0.055-0.512,0.154-1.006,0.244-1.501
		c0.196-1.088-0.333-1.695-1.441-1.637c-1.006,0.053-1.845,0.535-2.639,1.098c-1.017,0.721-1.861,1.631-2.713,2.531
		c-0.555,0.585-0.552,0.588-0.042,1.188c0.186,0.219,0.396,0.422,0.549,0.662c0.236,0.368,0.382,0.273,0.609-0.021
		c0.523-0.676,1.053-1.354,1.802-1.809c-0.001-0.003-0.001-0.008-0.003-0.011l0.007,0.008c-0.001,0-0.002,0.002-0.004,0.003
		c0.059,0.146,0.009,0.292-0.021,0.432c-0.847,3.982-1.553,7.995-2.537,11.947c-0.104,0.419,0.038,0.441,0.374,0.436
		c0.891-0.016,1.783-0.029,2.673,0.006c0.385,0.015,0.516-0.116,0.585-0.477c0.418-2.162,0.901-4.312,1.277-6.481
		c0.432-2.488,1.783-4.31,3.855-5.656c0.167-0.109,0.383-0.313,0.564-0.172c0.145,0.113,0.017,0.366-0.021,0.555
		C114.02,103.46,113.265,105.76,112.782,108.125z"/>
	<path fill-rule="evenodd" clip-rule="evenodd" fill="#FFFFFF" d="M99.433,102.058c-0.599,2.539-1.365,5.039-1.811,7.614
		c-0.156,0.898-0.242,1.8-0.027,2.699c0.286,1.193,1.305,1.744,2.467,1.348c0.448-0.153,0.846-0.399,1.228-0.672
		c1.052-0.752,1.966-1.649,2.788-2.644c0.654-0.792,0.653-0.793,0.127-1.658c-0.475-0.781-0.482-0.789-1.137-0.172
		c-0.657,0.62-1.297,1.257-2.023,1.963c-0.024-0.483,0.058-0.837,0.123-1.19c0.428-2.333,1.158-4.592,1.722-6.891
		c0.291-1.185,0.676-2.354,0.592-3.602c-0.088-1.325-0.988-2.133-2.234-1.974c-0.408,0.052-0.786,0.208-1.151,0.395
		c-0.704,0.359-1.327,0.839-1.935,1.337c-0.556,0.457-1.093,0.937-1.692,1.453c0.112-0.648,0.229-1.223,0.309-1.803
		c0.113-0.824-0.363-1.371-1.188-1.411c-0.771-0.037-1.457,0.234-2.108,0.597c-1.559,0.869-2.721,2.19-3.915,3.475
		c-0.125,0.135-0.084,0.227,0.018,0.344c0.286,0.332,0.562,0.673,0.845,1.007c0.35,0.412,0.353,0.412,0.682-0.007
		c0.53-0.674,1.087-1.321,1.823-1.835c0,0.085,0.008,0.131-0.001,0.174c-0.875,4.101-1.598,8.234-2.611,12.306
		c-0.075,0.302-0.051,0.42,0.309,0.411c0.952-0.024,1.905-0.02,2.856-0.001c0.285,0.005,0.397-0.096,0.45-0.362
		c0.393-1.999,0.833-3.988,1.183-5.994c0.353-2.019,1.029-3.846,2.63-5.224c0.516-0.443,1.02-0.902,1.646-1.19
		c0.222-0.102,0.388-0.132,0.301,0.223C99.595,101.197,99.533,101.632,99.433,102.058z"/>
	<path fill-rule="evenodd" clip-rule="evenodd" fill="#FFFFFF" d="M86.066,101.041c0.495-2.268,1.045-4.523,1.628-6.771
		c0.207-0.796,0.669-1.214,1.469-1.299c0.45-0.047,0.899-0.105,1.349-0.157c0.134-0.016,0.279-0.005,0.326-0.179
		c0.186-0.688,0.372-1.375,0.573-2.12c-1.874,0.402-3.699,0.43-5.523,0.493c-1.174,0.041-2.357,0.058-3.495,0.425
		c-0.139,0.045-0.297,0.052-0.352,0.237c-0.2,0.688-0.407,1.374-0.628,2.115c0.833-0.151,1.583-0.371,2.355-0.48
		c0.395-0.056,0.409,0.037,0.337,0.386c-0.846,4.09-1.75,8.167-2.691,12.236c-0.33,1.424-0.618,2.858-1.058,4.256
		c-0.134,0.424-0.378,0.69-0.799,0.842c-0.684,0.249-1.383,0.426-2.099,0.538c-0.242,0.038-0.362,0.127-0.401,0.389
		c-0.078,0.521-0.192,1.038-0.308,1.552c-0.061,0.271-0.005,0.355,0.286,0.288c2.17-0.506,4.368-0.528,6.574-0.335
		c0.737,0.064,1.472,0.141,2.215,0.129c0.25-0.005,0.379-0.074,0.438-0.335c0.103-0.455,0.229-0.907,0.378-1.349
		c0.096-0.286,0.044-0.377-0.266-0.361c-0.694,0.035-1.388,0.027-2.08-0.071c-0.292-0.042-0.448-0.091-0.363-0.477
		C84.657,107.678,85.342,104.355,86.066,101.041z"/>
	<path fill-rule="evenodd" clip-rule="evenodd" fill="#FFFFFF" d="M176.682,70.636c0.002,0.016,0.025,0.03,0.038,0.046
		c0.013-0.037,0.024-0.074,0.036-0.111c0,0-0.007-0.007-0.007-0.007C176.694,70.558,176.679,70.592,176.682,70.636z"/>
	<path fill-rule="evenodd" clip-rule="evenodd" fill="#FFFFFF" d="M14.128,75.817c0.004-0.023,0.008-0.046,0.012-0.069
		c-0.015,0.017-0.03,0.033-0.046,0.05C14.105,75.804,14.117,75.811,14.128,75.817z"/>
	<path fill-rule="evenodd" clip-rule="evenodd" fill="#FFFFFF" d="M14.14,75.748c0.003-0.003,0.006-0.007,0.009-0.01
		c0-0.003,0-0.007,0-0.011c-0.002,0.002-0.003,0.004-0.006,0.005C14.142,75.738,14.141,75.743,14.14,75.748z"/>
	<path fill-rule="evenodd" clip-rule="evenodd" fill="#FFFFFF" d="M183.966,114.033c-0.023-0.001-0.048,0.006-0.072,0.01
		c0.011,0.014,0.022,0.028,0.035,0.043c0.021-0.009,0.044-0.019,0.066-0.028C183.985,114.05,183.977,114.033,183.966,114.033z"/>
	<path fill-rule="evenodd" clip-rule="evenodd" fill="#FFFFFF" d="M11.127,98.746c0-0.009,0-0.019,0.001-0.027
		c-0.008-0.005-0.019-0.016-0.023-0.014c-0.01,0.005-0.018,0.017-0.026,0.025C11.095,98.735,11.111,98.741,11.127,98.746z"/>
	<path fill-rule="evenodd" clip-rule="evenodd" fill="#FFFFFF" d="M187.602,113.39c-0.01,0.014-0.021,0.027-0.03,0.04
		c0.01,0.005,0.02,0.01,0.029,0.014c0.011-0.009,0.021-0.018,0.03-0.026C187.621,113.408,187.611,113.399,187.602,113.39z"/>
	<path fill-rule="evenodd" clip-rule="evenodd" fill="#FFFFFF" d="M16.155,114.054c0.009,0.01,0.018,0.019,0.027,0.029
		c0.012-0.009,0.023-0.016,0.035-0.024c-0.01-0.009-0.019-0.025-0.029-0.026C16.178,114.031,16.166,114.046,16.155,114.054z"/>
	<path fill-rule="evenodd" clip-rule="evenodd" fill="#FFFFFF" d="M63.46,42.877c-0.004,0.225,0.054,0.36,0.3,0.314
		c0.446-0.084,0.479,0.16,0.475,0.516c-0.016,1.45,0.003,2.9-0.014,4.351c-0.004,0.345,0.076,0.474,0.449,0.466
		c1.178-0.024,2.357-0.023,3.535-0.001c0.355,0.007,0.458-0.089,0.453-0.449c-0.021-1.496,0-2.991-0.016-4.487
		c-0.003-0.323,0.094-0.415,0.408-0.4c0.528,0.024,1.059,0.03,1.586-0.001c0.369-0.022,0.489,0.078,0.483,0.467
		c-0.023,1.495-0.001,2.991-0.016,4.486c-0.003,0.301,0.089,0.385,0.384,0.382c1.224-0.015,2.448-0.028,3.671,0.006
		c0.426,0.012,0.486-0.136,0.484-0.512c-0.016-2.356-0.008-4.713-0.008-7.07c0-2.402-0.007-4.804,0.008-7.206
		c0.002-0.341-0.088-0.434-0.428-0.428c-1.193,0.021-2.388,0.023-3.581-0.001c-0.402-0.008-0.539,0.085-0.535,0.518
		c0.023,2.19,0.006,4.381,0.017,6.572c0.002,0.306-0.069,0.429-0.398,0.413c-0.543-0.025-1.089-0.031-1.631,0.001
		c-0.37,0.022-0.448-0.11-0.445-0.457c0.015-2.206,0-4.411,0.016-6.617c0.002-0.34-0.086-0.436-0.428-0.43
		c-1.178,0.021-2.356,0.023-3.535-0.001c-0.386-0.008-0.477,0.118-0.475,0.487c0.017,2.19,0.002,4.381,0.015,6.572
		c0.002,0.318-0.055,0.499-0.416,0.438c-0.272-0.045-0.371,0.067-0.361,0.35C63.478,41.729,63.472,42.303,63.46,42.877z"/>
	<path fill-rule="evenodd" clip-rule="evenodd" fill="#FFFFFF" d="M122.174,46.928c0.032-0.373-0.087-0.483-0.47-0.479
		c-2.025,0.02-4.05,0.002-6.075,0.016c-0.33,0.002-0.45-0.072-0.438-0.423c0.027-0.8,0.023-1.602,0.001-2.403
		c-0.009-0.329,0.113-0.414,0.418-0.399c0.452,0.021,0.907-0.001,1.36,0.008c0.208,0.005,0.298-0.058,0.293-0.282
		c-0.011-0.62-0.011-1.24,0-1.859c0.004-0.215-0.064-0.292-0.283-0.286c-0.468,0.013-0.938-0.015-1.405,0.01
		c-0.303,0.017-0.385-0.086-0.382-0.381c0.013-1.496,0.021-2.993-0.004-4.488c-0.007-0.412,0.098-0.537,0.522-0.532
		c2.01,0.023,4.02,0.003,6.03,0.018c0.334,0.002,0.458-0.079,0.432-0.427c-0.031-0.421-0.034-0.848,0.001-1.269
		c0.032-0.381-0.124-0.444-0.463-0.441c-1.738,0.015-3.476,0.007-5.214,0.007c-1.737,0-3.476,0.011-5.214-0.009
		c-0.37-0.004-0.485,0.089-0.482,0.471c0.018,2.191,0,4.383,0.018,6.574c0.003,0.37-0.084,0.536-0.467,0.472
		c-0.268-0.044-0.375,0.052-0.364,0.343c0.022,0.574,0.02,1.149,0.001,1.723c-0.009,0.278,0.083,0.398,0.359,0.354
		c0.384-0.062,0.476,0.106,0.471,0.476c-0.021,1.466,0,2.932-0.016,4.397c-0.003,0.322,0.097,0.408,0.41,0.403
		c1.088-0.018,2.176-0.007,3.264-0.007c2.388,0,4.776-0.008,7.164,0.008c0.389,0.002,0.586-0.061,0.535-0.508
		C122.135,47.657,122.144,47.289,122.174,46.928z"/>
	<path fill-rule="evenodd" clip-rule="evenodd" fill="#FFFFFF" d="M94.389,33.62c0.015,0.453,0.024,0.907-0.002,1.359
		c-0.019,0.313,0.107,0.383,0.39,0.382c0.952-0.002,1.903,0.032,2.854,0.019c0.344-0.005,0.428,0.1,0.426,0.436
		c-0.016,2.039-0.008,4.078-0.008,6.117c0,2.054,0.008,4.108-0.008,6.162c-0.002,0.343,0.095,0.434,0.432,0.428
		c1.193-0.02,2.387-0.025,3.579,0.001c0.405,0.009,0.529-0.089,0.527-0.515c-0.018-4.063-0.006-8.125-0.018-12.188
		c-0.001-0.327,0.065-0.446,0.418-0.436c0.966,0.026,1.934,0.002,2.9,0.013c0.245,0.002,0.354-0.057,0.344-0.325
		c-0.019-0.483-0.015-0.967-0.001-1.45c0.006-0.24-0.088-0.309-0.319-0.31c-3.73-0.008-7.461-0.019-11.191-0.04
		C94.438,33.272,94.381,33.379,94.389,33.62z"/>
	<path fill-rule="evenodd" clip-rule="evenodd" fill="#FFFFFF" d="M136.717,46.452c-1.934,0.014-3.869-0.007-5.802,0.018
		c-0.425,0.005-0.514-0.123-0.512-0.525c0.015-4.034,0.004-8.069,0.017-12.103c0.001-0.39-0.063-0.549-0.507-0.535
		c-1.147,0.036-2.296,0.028-3.444,0.003c-0.402-0.009-0.539,0.083-0.535,0.515c0.023,2.357,0.01,4.714,0.01,7.071
		c0,2.357,0.011,4.714-0.01,7.071c-0.004,0.424,0.083,0.566,0.538,0.559c1.797-0.028,3.596-0.012,5.394-0.012
		c1.632,0,3.264-0.005,4.896,0.005c0.283,0.001,0.413-0.062,0.393-0.376c-0.026-0.421-0.03-0.848,0.001-1.269
		C137.182,46.52,137.043,46.449,136.717,46.452z"/>
	<path fill-rule="evenodd" clip-rule="evenodd" fill="#FFFFFF" d="M79.484,44.074c0.392,2.468,2.838,4.908,6.137,4.575
		c2.628-0.265,4.923-2.615,4.979-5.256c0.033-1.571,0.032-3.144,0.001-4.715c-0.051-2.646-2.295-5.018-4.872-5.308
		c-3.396-0.383-5.709,2.056-6.189,4.281c-0.239,1.106-0.093,2.23-0.144,3.301C79.429,42.021,79.322,43.054,79.484,44.074z
		 M83.881,36.539c0.001-0.731,0.378-1.091,1.132-1.088c0.715,0.002,1.122,0.382,1.123,1.065c0.003,2.992,0.003,5.984,0,8.976
		c-0.001,0.682-0.41,1.064-1.122,1.067c-0.752,0.003-1.132-0.359-1.133-1.088c-0.002-1.496,0-2.992,0-4.488
		C83.88,39.501,83.879,38.02,83.881,36.539z"/>
</g>
</svg>
