<?xml version="1.0" encoding="utf-8"?>
<!-- Generator: Adobe Illustrator 16.0.0, SVG Export Plug-In . SVG Version: 6.00 Build 0)  -->
<!DOCTYPE svg PUBLIC "-//W3C//DTD SVG 1.1//EN" "http://www.w3.org/Graphics/SVG/1.1/DTD/svg11.dtd">
<svg version="1.1" id="Layer_1" xmlns="http://www.w3.org/2000/svg" xmlns:xlink="http://www.w3.org/1999/xlink" x="0px" y="0px"
	 width="54.115px" height="99.421px" viewBox="0 0 54.115 99.421" enable-background="new 0 0 54.115 99.421" xml:space="preserve">
<path opacity="0.75" fill="#73A950" d="M4.404,0C2.92,0,1.453,0.077,0,0.205v99.011c1.453,0.128,2.92,0.205,4.404,0.205
	c27.455,0,49.711-22.257,49.711-49.712S31.859,0,4.404,0z"/>
</svg>
