<?xml version="1.0" encoding="utf-8"?>
<!-- Generator: Adobe Illustrator 16.0.0, SVG Export Plug-In . SVG Version: 6.00 Build 0)  -->
<!DOCTYPE svg PUBLIC "-//W3C//DTD SVG 1.1//EN" "http://www.w3.org/Graphics/SVG/1.1/DTD/svg11.dtd">
<svg version="1.1" id="Layer_1" xmlns="http://www.w3.org/2000/svg" xmlns:xlink="http://www.w3.org/1999/xlink" x="0px" y="0px"
	 width="259.223px" height="138.378px" viewBox="0 0 259.223 138.378" enable-background="new 0 0 259.223 138.378"
	 xml:space="preserve">
<linearGradient id="SVGID_1_" gradientUnits="userSpaceOnUse" x1="129.6113" y1="9.8516" x2="129.6113" y2="138.3789">
	<stop  offset="0" style="stop-color:#FFFFFF;stop-opacity:0"/>
	<stop  offset="0.0417" style="stop-color:#F0F6ED;stop-opacity:0.0417"/>
	<stop  offset="0.1475" style="stop-color:#CFE2C3;stop-opacity:0.1475"/>
	<stop  offset="0.2595" style="stop-color:#B3D0A0;stop-opacity:0.2595"/>
	<stop  offset="0.3769" style="stop-color:#9BC283;stop-opacity:0.3769"/>
	<stop  offset="0.5015" style="stop-color:#8AB76C;stop-opacity:0.5015"/>
	<stop  offset="0.6365" style="stop-color:#7DAF5C;stop-opacity:0.6365"/>
	<stop  offset="0.7896" style="stop-color:#75AA53;stop-opacity:0.7896"/>
	<stop  offset="1" style="stop-color:#73A950"/>
</linearGradient>
<rect y="9.852" opacity="0.9" fill="url(#SVGID_1_)" width="259.223" height="128.527"/>
</svg>
