<?xml version="1.0" encoding="utf-8"?>
<!-- Generator: Adobe Illustrator 16.0.0, SVG Export Plug-In . SVG Version: 6.00 Build 0)  -->
<!DOCTYPE svg PUBLIC "-//W3C//DTD SVG 1.1//EN" "http://www.w3.org/Graphics/SVG/1.1/DTD/svg11.dtd">
<svg version="1.1" id="Layer_1" xmlns="http://www.w3.org/2000/svg" xmlns:xlink="http://www.w3.org/1999/xlink" x="0px" y="0px"
	 width="30px" height="30px" viewBox="0 0 30 30" enable-background="new 0 0 30 30" xml:space="preserve">
<g>
	<g>
		<polygon fill="#73A950" points="18.018,2.089 18.018,2.089 22.434,2.089 14.888,9.573 22.434,17.09 18.018,17.09 10.502,9.573 		
			"/>
		<polygon fill="#717271" points="9.674,2.089 14.06,2.089 6.544,9.573 14.06,17.09 9.674,17.09 2.126,9.573 		"/>
	</g>
</g>
</svg>
