<?xml version="1.0" encoding="utf-8"?>
<!-- Generator: Adobe Illustrator 16.0.0, SVG Export Plug-In . SVG Version: 6.00 Build 0)  -->
<!DOCTYPE svg PUBLIC "-//W3C//DTD SVG 1.1//EN" "http://www.w3.org/Graphics/SVG/1.1/DTD/svg11.dtd">
<svg version="1.1" id="Layer_1" xmlns="http://www.w3.org/2000/svg" xmlns:xlink="http://www.w3.org/1999/xlink" x="0px" y="0px"
	 width="29.553px" height="25px" viewBox="0 0 29.553 25" enable-background="new 0 0 29.553 25" xml:space="preserve">
<g>
	<g>
		<path fill="#73A950" d="M23.294,12.838h-0.396c-0.129,0-0.242-0.082-0.285-0.205c-0.979-2.906-3.811-4.86-7.045-4.86
			c-3.236,0-6.068,1.954-7.046,4.86c-0.041,0.123-0.154,0.205-0.283,0.205H7.842c-0.855,0-1.551,0.697-1.551,1.551
			s0.695,1.551,1.551,1.551h0.197c0.141,0,0.262,0.098,0.291,0.235c0.711,3.211,3.754,5.543,7.238,5.543
			c3.484,0,6.527-2.332,7.236-5.543c0.031-0.137,0.152-0.235,0.293-0.235h0.197c0.855,0,1.549-0.696,1.549-1.551
			C24.843,13.534,24.15,12.838,23.294,12.838z"/>
	</g>
	<path fill="#73A950" d="M16.226,8.548c-1.46,0-2.65-1.188-2.65-2.649c0-1.202,0.979-2.18,2.179-2.18
		c0.994,0,1.803,0.81,1.803,1.804c0,0.829-0.674,1.503-1.502,1.503c-0.695,0-1.259-0.567-1.259-1.262
		c0-0.165,0.132-0.299,0.298-0.299c0.164,0,0.299,0.134,0.299,0.299c0,0.366,0.297,0.664,0.662,0.664c0.5,0,0.904-0.406,0.904-0.904
		c0-0.664-0.541-1.205-1.205-1.205c-0.871,0-1.58,0.709-1.58,1.582c0,1.13,0.919,2.05,2.05,2.05c0.164,0,0.299,0.134,0.299,0.299
		S16.39,8.548,16.226,8.548z"/>
</g>
</svg>
