<?xml version="1.0" encoding="utf-8"?>
<!-- Generator: Adobe Illustrator 16.0.0, SVG Export Plug-In . SVG Version: 6.00 Build 0)  -->
<!DOCTYPE svg PUBLIC "-//W3C//DTD SVG 1.1//EN" "http://www.w3.org/Graphics/SVG/1.1/DTD/svg11.dtd">
<svg version="1.1" id="Layer_1" xmlns="http://www.w3.org/2000/svg" xmlns:xlink="http://www.w3.org/1999/xlink" x="0px" y="0px"
	 width="29.553px" height="25px" viewBox="0 0 29.553 25" enable-background="new 0 0 29.553 25" xml:space="preserve">
<g opacity="0.9">
	<path fill-rule="evenodd" clip-rule="evenodd" fill="#73A950" d="M14.747,18.314c-4.783,0-9.564,0-14.347,0
		c-0.383,0-0.398-0.011-0.398-0.4c-0.001-1.321-0.003-2.643,0-3.964c0.005-0.868,0.453-1.316,1.314-1.316
		c8.984-0.001,17.965,0,26.949,0.001c0.81,0,1.277,0.451,1.284,1.256c0.007,1.341,0.002,2.682,0,4.022
		c0,0.396-0.007,0.399-0.425,0.399C24.331,18.313,19.54,18.313,14.747,18.314L14.747,18.314z"/>
	<path fill-rule="evenodd" clip-rule="evenodd" fill="#73A950" d="M1.706,8.665c0-0.828,0.006-1.657-0.003-2.484
		C1.699,5.961,1.781,5.845,1.978,5.752c3.077-1.455,6.303-2.367,9.689-2.718c5.002-0.52,9.829,0.19,14.481,2.089
		c0.481,0.198,0.954,0.429,1.434,0.633c0.188,0.08,0.269,0.191,0.269,0.402c-0.007,1.667-0.01,3.332,0,4.999
		c0,0.275-0.098,0.359-0.363,0.351c-0.541-0.015-1.085-0.01-1.627-0.001c-0.21,0.004-0.311-0.053-0.352-0.282
		c-0.244-1.292-1.084-1.986-2.394-1.988c-1.804-0.004-3.609-0.005-5.413,0.002c-1.301,0.005-2.162,0.731-2.378,2.007
		c-0.032,0.201-0.109,0.27-0.303,0.259c-0.235-0.014-0.497,0.049-0.702-0.032c-0.239-0.093-0.137-0.401-0.201-0.609
		c-0.283-0.923-1.11-1.608-2.076-1.617C10.092,9.228,8.14,9.225,6.188,9.245c-1.12,0.012-2.011,0.82-2.169,1.928
		c-0.038,0.271-0.145,0.343-0.396,0.336c-0.532-0.015-1.064-0.015-1.598-0.002c-0.247,0.007-0.325-0.091-0.323-0.329
		C1.711,10.34,1.706,9.502,1.706,8.665z"/>
	<path fill-rule="evenodd" clip-rule="evenodd" fill="#73A950" d="M14.792,19.447c4.751-0.001,9.503-0.001,14.254,0
		c0.507,0,0.507,0.002,0.507,0.51c0,0.639,0,0.639-0.645,0.642c-0.443,0.002-0.887,0.009-1.33,0
		c-0.23-0.005-0.313,0.093-0.309,0.318c0.009,0.552-0.006,1.104,0.002,1.655c0.004,0.215-0.073,0.299-0.293,0.295
		c-0.563-0.009-1.123-0.008-1.686,0.002c-0.223,0.004-0.29-0.091-0.289-0.301c0.008-0.502,0.002-1.006,0-1.508
		C25.002,20.6,25,20.598,24.547,20.598c-2.386,0-4.771,0-7.157,0c-4.121,0-8.242,0.001-12.361,0.002c-0.48,0-0.48,0-0.48,0.466
		c0,0.503-0.007,1.005,0,1.509c0.004,0.215-0.077,0.297-0.294,0.293c-0.562-0.009-1.123-0.01-1.686,0
		c-0.225,0.004-0.29-0.094-0.286-0.301c0.007-0.541-0.009-1.084,0.003-1.627c0.007-0.256-0.088-0.35-0.343-0.346
		c-0.532,0.014-1.065-0.002-1.596,0.008c-0.254,0.005-0.354-0.094-0.349-0.35c0.011-0.906-0.092-0.805,0.774-0.805
		C5.445,19.447,10.118,19.447,14.792,19.447z"/>
</g>
</svg>
