<?xml version="1.0" encoding="utf-8"?>
<!-- Generator: Adobe Illustrator 16.0.0, SVG Export Plug-In . SVG Version: 6.00 Build 0)  -->
<!DOCTYPE svg PUBLIC "-//W3C//DTD SVG 1.1//EN" "http://www.w3.org/Graphics/SVG/1.1/DTD/svg11.dtd">
<svg version="1.1" id="Layer_1" xmlns="http://www.w3.org/2000/svg" xmlns:xlink="http://www.w3.org/1999/xlink" x="0px" y="0px"
	 width="15.997px" height="15.994px" viewBox="0 0 15.997 15.994" enable-background="new 0 0 15.997 15.994" xml:space="preserve">
<g>
	<path fill="#73A950" d="M11.269,15.994c-2.193,0-4.382,0-6.574,0c-0.156-0.027-0.313-0.068-0.469-0.078
		c-2.271-0.119-4.07-1.766-4.154-4.034C-0.025,9.285-0.022,6.681,0.07,4.083c0.076-2.223,1.801-3.944,4.022-4.02
		c2.583-0.09,5.174-0.077,7.76-0.004c1.971,0.057,3.449,1.374,3.92,3.301c0.105,0.437,0.15,0.886,0.225,1.329
		c0,2.193,0,4.385,0,6.572c-0.027,0.182-0.068,0.363-0.08,0.546c-0.111,1.94-1.389,3.49-3.277,3.95
		C12.188,15.865,11.724,15.916,11.269,15.994z M14.595,7.967c-0.018,0-0.039-0.001-0.055-0.001c0-0.574,0.006-1.149-0.002-1.722
		c-0.014-0.587-0.041-1.173-0.064-1.761c-0.074-1.788-1.209-2.964-2.994-2.995c-2.332-0.039-4.669-0.039-7.003,0
		C2.694,1.519,1.52,2.696,1.493,4.481c-0.036,2.334-0.039,4.671,0.001,7.004c0.03,1.769,1.192,2.942,2.962,2.974
		c2.347,0.045,4.698,0.04,7.045,0.002c1.625-0.029,2.697-0.946,2.891-2.543C14.552,10.615,14.532,9.287,14.595,7.967z"/>
	<path fill="#73A950" d="M12.103,7.977c0,2.281-1.844,4.124-4.124,4.121c-2.282-0.003-4.133-1.852-4.128-4.123
		c0.005-2.279,1.854-4.129,4.128-4.127C10.259,3.849,12.101,5.693,12.103,7.977z M7.992,5.325C6.516,5.322,5.334,6.485,5.33,7.943
		c-0.008,1.5,1.156,2.682,2.636,2.684c1.475,0.004,2.661-1.162,2.665-2.619C10.636,6.512,9.472,5.327,7.992,5.325z"/>
	<path fill="#73A950" d="M12.249,2.728c0.533-0.004,0.971,0.42,0.975,0.955c0.01,0.528-0.418,0.978-0.945,0.996
		c-0.525,0.015-1.004-0.454-1.002-0.983C11.276,3.169,11.718,2.732,12.249,2.728z"/>
</g>
</svg>
