<?xml version="1.0" encoding="utf-8"?>
<!-- Generator: Adobe Illustrator 16.0.0, SVG Export Plug-In . SVG Version: 6.00 Build 0)  -->
<!DOCTYPE svg PUBLIC "-//W3C//DTD SVG 1.1//EN" "http://www.w3.org/Graphics/SVG/1.1/DTD/svg11.dtd">
<svg version="1.1" id="Layer_1" xmlns="http://www.w3.org/2000/svg" xmlns:xlink="http://www.w3.org/1999/xlink" x="0px" y="0px"
	 width="146.08px" height="3px" viewBox="0 0 146.08 3" enable-background="new 0 0 146.08 3" xml:space="preserve">
<polygon fill="#5d8940" points="146.08,1 97.654,1 97.654,0 48.426,0 48.426,1 0,1 0,2 48.426,2 48.426,3 97.654,3 97.654,2 
	146.08,2 "/>
</svg>
