<?xml version="1.0" encoding="utf-8"?>
<!-- Generator: Adobe Illustrator 16.0.0, SVG Export Plug-In . SVG Version: 6.00 Build 0)  -->
<!DOCTYPE svg PUBLIC "-//W3C//DTD SVG 1.1//EN" "http://www.w3.org/Graphics/SVG/1.1/DTD/svg11.dtd">
<svg version="1.1" id="Layer_1" xmlns="http://www.w3.org/2000/svg" xmlns:xlink="http://www.w3.org/1999/xlink" x="0px" y="0px"
	 width="33.903px" height="20px" viewBox="0 0 33.903 20" enable-background="new 0 0 33.903 20" xml:space="preserve">
<g>
	<path fill="#FDB515" d="M33.902,10c0,5.502-4.443,10-10,10c-5.502,0-10-4.498-10-10l0,0c0-5.502,4.445-10,9.947-10
		C29.459,0,33.902,4.498,33.902,10L33.902,10z"/>
	<path fill="#F79820" d="M23.902,0c5.502,0,10,4.498,10,10l0,0c0,5.502-4.443,10-10,10c-5.502,0-10-4.498-10-10"/>
	<path fill="#F6851F" d="M23.902,0c5.502,0,10,4.498,10,10l0,0c0,5.502-4.443,10-10,10"/>
	<path fill="#F05354" d="M10.461,0C5.012,0.052,0.568,4.498,0.568,10c0,5.502,4.443,10,10,10c2.594,0,4.922-1.006,6.719-2.592l0,0
		l0,0c0.371-0.318,0.689-0.689,1.006-1.06H16.23c-0.264-0.317-0.529-0.688-0.74-1.005h3.545c0.211-0.317,0.424-0.688,0.582-1.059
		h-4.709c-0.16-0.317-0.318-0.688-0.424-1.059h5.502c0.318-1.004,0.529-2.063,0.529-3.174c0-0.74-0.105-1.429-0.211-2.117h-6.139
		c0.055-0.369,0.16-0.688,0.266-1.058h5.502c-0.107-0.371-0.264-0.741-0.422-1.059h-4.656c0.156-0.369,0.369-0.687,0.582-1.057
		h3.545c-0.213-0.371-0.477-0.741-0.795-1.059H16.23c0.318-0.37,0.635-0.688,1.006-1.005c-1.746-1.641-4.129-2.593-6.721-2.593
		C10.516,0,10.516,0,10.461,0z"/>
	<path fill="#E42A36" d="M0.568,10c0,5.502,4.443,10,10,10c2.594,0,4.922-1.006,6.719-2.592l0,0l0,0
		c0.371-0.318,0.689-0.689,1.006-1.06H16.23c-0.264-0.317-0.529-0.688-0.74-1.005h3.545c0.211-0.317,0.424-0.688,0.582-1.059h-4.709
		c-0.16-0.317-0.318-0.688-0.424-1.059h5.502c0.318-1.004,0.529-2.063,0.529-3.174c0-0.74-0.105-1.429-0.211-2.117h-6.139
		c0.055-0.369,0.16-0.688,0.266-1.058h5.502c-0.107-0.371-0.264-0.741-0.422-1.059h-4.656c0.156-0.369,0.369-0.687,0.582-1.057
		h3.545c-0.213-0.371-0.477-0.741-0.795-1.059H16.23c0.318-0.37,0.635-0.688,1.006-1.005c-1.746-1.641-4.129-2.593-6.721-2.593
		h-0.055"/>
	<path fill="#CB2128" d="M10.568,20c2.594,0,4.922-1.006,6.719-2.592l0,0l0,0c0.371-0.318,0.689-0.689,1.006-1.06H16.23
		c-0.264-0.317-0.529-0.688-0.74-1.005h3.545c0.211-0.317,0.424-0.688,0.582-1.059h-4.709c-0.16-0.317-0.318-0.688-0.424-1.059
		h5.502c0.318-1.004,0.529-2.063,0.529-3.174c0-0.74-0.105-1.429-0.211-2.117h-6.139c0.055-0.369,0.16-0.688,0.266-1.058h5.502
		c-0.107-0.371-0.264-0.741-0.422-1.059h-4.656c0.156-0.369,0.369-0.687,0.582-1.057h3.545c-0.213-0.371-0.477-0.741-0.795-1.059
		H16.23c0.318-0.37,0.635-0.688,1.006-1.005c-1.746-1.641-4.129-2.593-6.721-2.593h-0.055"/>
	<g>
		<path fill="#FFFFFF" d="M14.113,12.539l0.16-0.9c-0.053,0-0.16,0.055-0.268,0.055c-0.367,0-0.42-0.213-0.367-0.318l0.316-1.852
			h0.582l0.158-1.005h-0.529l0.107-0.635h-1.059c0,0-0.635,3.491-0.635,3.914c0,0.635,0.371,0.9,0.846,0.9
			C13.742,12.698,14.006,12.592,14.113,12.539z"/>
		<path fill="#FFFFFF" d="M14.484,10.846c0,1.482,1.006,1.853,1.852,1.853c0.793,0,1.111-0.159,1.111-0.159l0.211-1.005
			c0,0-0.582,0.264-1.109,0.264c-1.166,0-0.953-0.845-0.953-0.845h2.17c0,0,0.156-0.689,0.156-0.954
			c0-0.688-0.371-1.534-1.533-1.534C15.277,8.36,14.484,9.523,14.484,10.846z M16.336,9.312c0.582,0,0.477,0.688,0.477,0.74h-1.166
			C15.646,10,15.754,9.312,16.336,9.312z"/>
		<path fill="#FFFFFF" d="M23.057,12.539l0.211-1.164c0,0-0.531,0.264-0.9,0.264c-0.74,0-1.057-0.581-1.057-1.216
			c0-1.27,0.635-1.958,1.375-1.958c0.529,0,0.953,0.317,0.953,0.317l0.158-1.111c0,0-0.635-0.264-1.217-0.264
			c-1.217,0-2.434,1.058-2.434,3.068c0,1.322,0.635,2.223,1.904,2.223C22.473,12.698,23.057,12.539,23.057,12.539z"/>
		<path fill="#FFFFFF" d="M8.293,8.36c-0.742,0-1.27,0.211-1.27,0.211L6.865,9.471c0,0,0.477-0.212,1.164-0.212
			c0.371,0,0.688,0.053,0.688,0.371c0,0.211-0.053,0.264-0.053,0.264s-0.316,0-0.477,0c-0.9,0-1.906,0.371-1.906,1.587
			c0,0.952,0.635,1.164,1.006,1.164c0.742,0,1.061-0.476,1.113-0.476l-0.053,0.423h0.951l0.424-2.91
			C9.723,8.412,8.664,8.36,8.293,8.36z M8.506,10.74c0,0.158-0.105,1.006-0.74,1.006c-0.318,0-0.424-0.266-0.424-0.424
			c0-0.265,0.158-0.635,0.951-0.635C8.453,10.74,8.506,10.74,8.506,10.74z"/>
		<path fill="#FFFFFF" d="M10.729,12.645c0.264,0,1.586,0.054,1.586-1.375c0-1.323-1.27-1.059-1.27-1.587
			c0-0.265,0.213-0.37,0.582-0.37c0.158,0,0.74,0.053,0.74,0.053l0.16-0.953c0,0-0.371-0.105-1.006-0.105
			c-0.793,0-1.588,0.317-1.588,1.375c0,1.216,1.324,1.112,1.324,1.587c0,0.318-0.371,0.369-0.637,0.369
			c-0.475,0-0.951-0.158-0.951-0.158l-0.158,0.952C9.563,12.539,9.826,12.645,10.729,12.645z"/>
		<path fill="#FFFFFF" d="M31.838,7.513l-0.211,1.429c0,0-0.424-0.53-1.004-0.53c-0.953,0-1.801,1.165-1.801,2.542
			c0,0.845,0.424,1.745,1.324,1.745c0.635,0,1.004-0.425,1.004-0.425l-0.053,0.371h1.059l0.795-5.078L31.838,7.513z M31.363,10.317
			c0,0.582-0.266,1.322-0.848,1.322c-0.369,0-0.582-0.316-0.582-0.845c0-0.847,0.371-1.376,0.848-1.376
			C31.15,9.417,31.363,9.682,31.363,10.317z"/>
		<path fill="#FFFFFF" d="M2.527,12.592l0.635-3.81l0.105,3.81h0.738l1.377-3.81l-0.58,3.81h1.111L6.76,7.513H5.012l-1.057,3.122
			L3.902,7.513H2.367l-0.846,5.079H2.527z"/>
		<path fill="#FFFFFF" d="M18.928,12.592c0.318-1.746,0.371-3.174,1.113-2.91c0.105-0.688,0.264-0.953,0.369-1.217
			c0,0-0.053,0-0.213,0c-0.475,0-0.846,0.635-0.846,0.635l0.107-0.582h-1.006l-0.688,4.126h1.162V12.592z"/>
		<path fill="#FFFFFF" d="M25.49,8.36c-0.742,0-1.27,0.211-1.27,0.211l-0.16,0.899c0,0,0.477-0.212,1.164-0.212
			c0.371,0,0.689,0.053,0.689,0.371c0,0.211-0.055,0.264-0.055,0.264s-0.316,0-0.477,0c-0.898,0-1.904,0.371-1.904,1.587
			c0,0.952,0.635,1.164,1.006,1.164c0.74,0,1.059-0.476,1.111-0.476l-0.053,0.423h0.953l0.422-2.91
			C26.971,8.412,25.859,8.36,25.49,8.36z M25.754,10.74c0,0.158-0.107,1.006-0.742,1.006c-0.316,0-0.422-0.266-0.422-0.424
			c0-0.265,0.158-0.635,0.953-0.635C25.701,10.74,25.701,10.74,25.754,10.74z"/>
		<path fill="#FFFFFF" d="M27.818,12.592c0.316-1.746,0.369-3.174,1.109-2.91c0.107-0.688,0.264-0.953,0.371-1.217
			c0,0-0.053,0-0.211,0c-0.477,0-0.846,0.635-0.846,0.635l0.105-0.582h-1.006l-0.689,4.126h1.166V12.592z"/>
	</g>
	<g>
		<path fill="#DCE5E4" d="M12.473,11.798c0,0.635,0.371,0.9,0.848,0.9c0.371,0,0.686-0.106,0.793-0.159l0.16-0.9
			c-0.053,0-0.16,0.055-0.268,0.055c-0.367,0-0.42-0.213-0.367-0.318l0.316-1.852h0.582l0.158-1.005h-0.529l0.107-0.635"/>
		<path fill="#DCE5E4" d="M15.012,10.846c0,1.482,0.479,1.853,1.324,1.853c0.793,0,1.111-0.159,1.111-0.159l0.211-1.005
			c0,0-0.582,0.264-1.109,0.264c-1.166,0-0.953-0.845-0.953-0.845h2.17c0,0,0.156-0.689,0.156-0.954
			c0-0.688-0.371-1.534-1.533-1.534C15.277,8.36,15.012,9.523,15.012,10.846z M16.336,9.312c0.582,0,0.688,0.688,0.688,0.74h-1.377
			C15.646,10,15.754,9.312,16.336,9.312z"/>
		<path fill="#DCE5E4" d="M23.057,12.539l0.211-1.164c0,0-0.531,0.264-0.9,0.264c-0.74,0-1.057-0.581-1.057-1.216
			c0-1.27,0.635-1.958,1.375-1.958c0.529,0,0.953,0.317,0.953,0.317l0.158-1.111c0,0-0.635-0.264-1.217-0.264
			c-1.217,0-1.904,1.058-1.904,3.068c0,1.322,0.105,2.223,1.375,2.223C22.473,12.698,23.057,12.539,23.057,12.539z"/>
		<path fill="#DCE5E4" d="M6.865,9.523c0,0,0.477-0.211,1.164-0.211c0.371,0,0.688,0.053,0.688,0.37
			c0,0.211-0.053,0.265-0.053,0.265s-0.316,0-0.477,0c-0.9,0-1.906,0.37-1.906,1.587c0,0.952,0.635,1.164,1.006,1.164
			c0.742,0,1.061-0.476,1.113-0.476l-0.053,0.422h0.951l0.424-2.91c0-1.216-1.059-1.27-1.482-1.27 M9.035,10.74
			c0,0.158-0.635,1.006-1.27,1.006c-0.318,0-0.424-0.266-0.424-0.424c0-0.265,0.158-0.635,0.951-0.635
			C8.453,10.74,9.035,10.74,9.035,10.74z"/>
		<path fill="#DCE5E4" d="M9.563,12.539c0,0,0.318,0.105,1.219,0.105c0.264,0,1.586,0.054,1.586-1.375
			c0-1.323-1.27-1.059-1.27-1.587c0-0.265,0.213-0.37,0.582-0.37c0.158,0,0.742,0.053,0.742,0.053l0.158-0.953
			c0,0-0.371-0.105-1.006-0.105c-0.793,0-1.059,0.317-1.059,1.375c0,1.216,0.795,1.112,0.795,1.587c0,0.318-0.371,0.369-0.635,0.369
			"/>
		<path fill="#DCE5E4" d="M31.627,8.941c0,0-0.424-0.53-1.004-0.53c-0.953,0-1.271,1.165-1.271,2.542
			c0,0.845-0.105,1.745,0.795,1.745c0.635,0,1.004-0.425,1.004-0.425l-0.053,0.371h1.059l0.795-5.078 M31.574,10.317
			c0,0.582-0.477,1.322-1.059,1.322c-0.369,0-0.582-0.316-0.582-0.845c0-0.847,0.371-1.376,0.848-1.376
			C31.15,9.417,31.574,9.682,31.574,10.317z"/>
		<path fill="#DCE5E4" d="M2.527,12.592l0.635-3.81l0.105,3.81h0.738l1.377-3.81l-0.58,3.81h1.111L6.76,7.513H5.438l-1.482,3.122
			L3.902,7.513H3.32l-1.799,5.079H2.527z"/>
		<path fill="#DCE5E4" d="M17.818,12.592h1.109c0.318-1.746,0.371-3.174,1.113-2.91c0.105-0.688,0.264-0.953,0.369-1.217
			c0,0-0.053,0-0.213,0c-0.475,0-0.846,0.635-0.846,0.635l0.107-0.582"/>
		<path fill="#DCE5E4" d="M24.061,9.523c0,0,0.477-0.211,1.164-0.211c0.371,0,0.689,0.053,0.689,0.37
			c0,0.211-0.055,0.265-0.055,0.265s-0.316,0-0.477,0c-0.898,0-1.904,0.37-1.904,1.587c0,0.952,0.635,1.164,1.006,1.164
			c0.74,0,1.059-0.476,1.111-0.476l-0.053,0.422h0.953l0.422-2.91c0-1.216-1.059-1.27-1.48-1.27 M26.23,10.74
			c0,0.158-0.635,1.006-1.27,1.006c-0.318,0-0.424-0.266-0.424-0.424c0-0.265,0.158-0.635,0.953-0.635
			C25.701,10.74,26.23,10.74,26.23,10.74z"/>
		<path fill="#DCE5E4" d="M26.707,12.592h1.111c0.316-1.746,0.369-3.174,1.109-2.91c0.107-0.688,0.264-0.953,0.371-1.217
			c0,0-0.053,0-0.211,0c-0.477,0-0.846,0.635-0.846,0.635l0.105-0.582"/>
	</g>
</g>
</svg>
