<?xml version="1.0" encoding="utf-8"?>
<!-- Generator: Adobe Illustrator 16.0.0, SVG Export Plug-In . SVG Version: 6.00 Build 0)  -->
<!DOCTYPE svg PUBLIC "-//W3C//DTD SVG 1.1//EN" "http://www.w3.org/Graphics/SVG/1.1/DTD/svg11.dtd">
<svg version="1.1" id="Layer_1" xmlns="http://www.w3.org/2000/svg" xmlns:xlink="http://www.w3.org/1999/xlink" x="0px" y="0px"
	 width="22px" height="40px" viewBox="0 0 22 40" enable-background="new 0 0 22 40" xml:space="preserve">
<g>
	<path fill="#FFFFFF" d="M21.842,0.007v0.582c0,0.389-0.188,0.758-0.563,1.111L2.177,18.943c-0.219,0.176-0.441,0.361-0.666,0.555
		C1.281,19.69,1.048,19.858,0.812,20c0.236,0.105,0.465,0.254,0.682,0.449c0.217,0.194,0.445,0.397,0.684,0.609L21.278,38.3
		c0.375,0.318,0.563,0.688,0.563,1.111v0.582L0.158,20.318v-0.635L21.842,0.007z"/>
</g>
</svg>
