<?xml version="1.0" encoding="utf-8"?>
<!-- Generator: Adobe Illustrator 16.0.0, SVG Export Plug-In . SVG Version: 6.00 Build 0)  -->
<!DOCTYPE svg PUBLIC "-//W3C//DTD SVG 1.1//EN" "http://www.w3.org/Graphics/SVG/1.1/DTD/svg11.dtd">
<svg version="1.1" id="Layer_1" xmlns="http://www.w3.org/2000/svg" xmlns:xlink="http://www.w3.org/1999/xlink" x="0px" y="0px"
	 width="19.624px" height="26.343px" viewBox="0 0 19.624 26.343" enable-background="new 0 0 19.624 26.343" xml:space="preserve">
<g>
	<path fill="#FFFFFF" d="M14.479,1.78c-0.684-1.326-2.682-2.045-4.836-1.689c-2.75,0.455-5.67,2.648-6.196,7.408l-2.981,0
		c-0.257,0-0.464,0.209-0.464,0.466L0,23.21c0.001,0.123,0.049,0.242,0.136,0.329c0.088,0.087,0.206,0.136,0.329,0.137h6.479
		c0.124,0,0.242-0.049,0.33-0.136c0.086-0.088,0.135-0.207,0.135-0.33V7.964c0-0.258-0.208-0.466-0.465-0.466H4.387
		C4.89,3.324,7.414,1.403,9.795,1.01c1.491-0.246,2.907,0.104,3.585,0.818c-1.159,0.167-2.226,0.698-3.068,1.542
		c-1.03,1.03-1.599,2.4-1.599,3.857c0,1.193,0.378,2.327,1.096,3.278c0.621,0.826,1.479,1.467,2.442,1.829V23.84
		c0,0.123,0.048,0.241,0.135,0.329l2.039,2.037c0.181,0.182,0.476,0.182,0.658,0l2.036-2.038c0.088-0.087,0.137-0.206,0.137-0.329
		V11.724c0.275-0.189,0.534-0.404,0.771-0.641l0,0c1.031-1.03,1.598-2.4,1.598-3.856c0-1.457-0.566-2.827-1.598-3.857
		C17.07,2.413,15.818,1.855,14.479,1.78z M6.479,8.43v14.314l-5.547,0.001V8.43h2.445C3.369,8.637,3.363,8.851,3.363,9.067
		c0,0.258,0.208,0.466,0.466,0.466c0.257,0,0.465-0.208,0.465-0.465c0-0.218,0.007-0.43,0.016-0.638H6.479z M18.692,7.227
		c0,1.208-0.47,2.343-1.324,3.198c-0.249,0.248-0.524,0.467-0.822,0.652c-0.138,0.085-0.221,0.234-0.221,0.395v12.176l-1.57,1.571
		l-1.572-1.571v-2.508h0.777c0.128,0,0.245-0.052,0.328-0.136c0.085-0.084,0.138-0.2,0.138-0.33c0-0.256-0.209-0.465-0.466-0.465
		h-0.777v-1.673h1.26c0.128,0,0.243-0.052,0.329-0.137c0.085-0.084,0.137-0.2,0.138-0.329c0-0.257-0.21-0.466-0.467-0.466h-1.26
		v-1.55h0.777c0.128,0,0.245-0.053,0.329-0.137c0.084-0.085,0.137-0.201,0.137-0.329c0-0.257-0.209-0.465-0.466-0.465h-0.777v-3.12
		c0-0.206-0.136-0.387-0.331-0.446c-1.918-0.583-3.207-2.323-3.207-4.329c0-1.209,0.469-2.346,1.325-3.2
		c0.854-0.855,1.989-1.325,3.2-1.324c1.207,0,2.344,0.47,3.198,1.324S18.692,6.019,18.692,7.227z"/>
	<path fill="#FFFFFF" d="M12.702,4.711c-0.39,0-0.705,0.314-0.705,0.703c0,0.389,0.315,0.704,0.705,0.704h2.936
		c0.388,0,0.703-0.314,0.703-0.704c0-0.388-0.315-0.703-0.703-0.703H12.702z"/>
</g>
</svg>
