<?xml version="1.0" encoding="utf-8"?>
<!-- Generator: Adobe Illustrator 16.0.0, SVG Export Plug-In . SVG Version: 6.00 Build 0)  -->
<!DOCTYPE svg PUBLIC "-//W3C//DTD SVG 1.1//EN" "http://www.w3.org/Graphics/SVG/1.1/DTD/svg11.dtd">
<svg version="1.1" id="Layer_1" xmlns="http://www.w3.org/2000/svg" xmlns:xlink="http://www.w3.org/1999/xlink" x="0px" y="0px"
	 width="19.677px" height="15.994px" viewBox="0 0 19.677 15.994" enable-background="new 0 0 19.677 15.994" xml:space="preserve">
<g>
	<path fill="#73A950" d="M19.677,1.894c-0.725,0.321-1.5,0.537-2.32,0.635c0.836-0.5,1.477-1.292,1.775-2.232
		c-0.779,0.461-1.643,0.798-2.563,0.978C15.833,0.49,14.783,0,13.623,0c-2.229,0-4.037,1.809-4.037,4.038
		c0,0.316,0.037,0.624,0.104,0.92C6.336,4.789,3.361,3.182,1.37,0.739C1.023,1.337,0.823,2.03,0.823,2.77
		c0,1.399,0.713,2.638,1.797,3.361C1.959,6.109,1.335,5.928,0.791,5.626c0,0.015,0,0.034,0,0.051c0,1.955,1.392,3.587,3.239,3.958
		C3.69,9.727,3.335,9.776,2.965,9.776c-0.259,0-0.514-0.024-0.759-0.071c0.515,1.604,2.004,2.771,3.771,2.803
		c-1.38,1.082-3.122,1.729-5.012,1.729c-0.327,0-0.647-0.018-0.965-0.057c1.787,1.146,3.908,1.814,6.188,1.814
		c7.426,0,11.487-6.15,11.487-11.486c0-0.175-0.004-0.349-0.012-0.523C18.451,3.414,19.136,2.704,19.677,1.894L19.677,1.894z"/>
</g>
</svg>
