<?xml version="1.0" encoding="utf-8"?>
<!-- Generator: Adobe Illustrator 16.0.0, SVG Export Plug-In . SVG Version: 6.00 Build 0)  -->
<!DOCTYPE svg PUBLIC "-//W3C//DTD SVG 1.1//EN" "http://www.w3.org/Graphics/SVG/1.1/DTD/svg11.dtd">
<svg version="1.1" id="Layer_1" xmlns="http://www.w3.org/2000/svg" xmlns:xlink="http://www.w3.org/1999/xlink" x="0px" y="0px"
	 width="20px" height="19.999px" viewBox="0 0 20 19.999" enable-background="new 0 0 20 19.999" xml:space="preserve">
<path fill="#73A950" d="M8.837,12.004l7.997,7.995H0.841L8.837,12.004z M17.673,9.103v10.056l-7.996-7.996l1.597-1.598
	c-0.03-0.037-0.059-0.074-0.091-0.111c-0.216-0.264-0.439-0.536-0.653-0.824L0,19.159V2.722c0-0.219,0.177-0.396,0.396-0.396h9.625
	C10.926,0.928,12.5,0,14.286,0c2.8,0,5.077,2.278,5.077,5.078C19.363,6.845,18.518,8.057,17.673,9.103z M7.795,6.375H4.858v1.119
	h1.73c-0.237,0.73-0.922,1.259-1.73,1.259c-1.003,0-1.817-0.816-1.817-1.818s0.814-1.818,1.817-1.818
	c0.404,0,0.789,0.13,1.108,0.376l0.683-0.886C6.131,4.208,5.512,3.997,4.858,3.997c-1.619,0-2.938,1.318-2.938,2.938
	c0,1.619,1.317,2.938,2.938,2.938c1.621,0,2.937-1.318,2.937-2.938V6.375L7.795,6.375z M18.174,5.077
	c0-2.147-1.74-3.889-3.889-3.889c-2.148,0-3.889,1.741-3.889,3.889c0,3.228,3.65,4.153,3.65,8h0.239h0.239
	C14.524,9.231,18.174,8.305,18.174,5.077z M14.286,3.299c-0.837,0-1.516,0.678-1.516,1.515c0,0.837,0.679,1.516,1.516,1.516
	c0.836,0,1.515-0.678,1.515-1.516C15.8,3.977,15.122,3.299,14.286,3.299z"/>
</svg>
